************************
Authors:
- Christian Elsholtz (Graz University of Technology, elsholtz@math.tugraz.at)
- Gabriel F. Lipnik (Graz University of Technology, math@gabriellipnik.at)

This file contains all admissible digit sets for small primes p.
Note that, without loss of generality, we have fixed the digits 0 and 1,
i.e., each of the following sets contains these digits.

Moreover, we have marked reducible digit sets as follows:
d ... digit-reducible
m ... matrix-reducible

The parameter p is the modulus, m is the size of the digit sets.
************************


p = 5, m = 3 (maximal):

[0, 1, 2] (d, m)
[0, 1, 3] (d, m)
[0, 1, 4] (d, m)
________________________

p = 7, m = 3 (maximal):

[0, 1, 2] (d, m)
[0, 1, 4] (d, m)
[0, 1, 6] (d, m)
________________________

p = 11, m = 5 (maximal):

[0, 1, 2, 3, 4] (d, m)
[0, 1, 2, 3, 6] (d, m)
[0, 1, 2, 3, 7] (d, m)
[0, 1, 2, 3, 8] (d, m)
[0, 1, 2, 3, 10] (d, m)
[0, 1, 2, 4, 5] (d, m)
[0, 1, 2, 4, 6] (d, m)
[0, 1, 2, 4, 8] (d, m)
[0, 1, 2, 4, 9] (d, m)
[0, 1, 2, 5, 7] (d, m)
[0, 1, 2, 5, 8] (d, m)
[0, 1, 2, 5, 9] (d, m)
[0, 1, 2, 5, 10] (d, m)
[0, 1, 2, 6, 7] (d, m)
[0, 1, 2, 6, 8] (d, m)
[0, 1, 2, 6, 10] (d, m)
[0, 1, 2, 7, 9] (d, m)
[0, 1, 2, 7, 10] (d, m)
[0, 1, 2, 8, 9] (d, m)
[0, 1, 2, 9, 10] (d, m)
[0, 1, 3, 4, 5] (d, m)
[0, 1, 3, 4, 6] (d, m)
[0, 1, 3, 4, 9] (d, m)
[0, 1, 3, 4, 10] (d, m)
[0, 1, 3, 5, 6] (d, m)
[0, 1, 3, 5, 8] (d, m)
[0, 1, 3, 5, 9] (d, m)
[0, 1, 3, 5, 10] (d, m)
[0, 1, 3, 6, 7] (d, m)
[0, 1, 3, 6, 9] (d, m)
[0, 1, 3, 7, 8] (d, m)
[0, 1, 3, 7, 9] (d, m)
[0, 1, 3, 7, 10] (d, m)
[0, 1, 3, 8, 9] (d, m)
[0, 1, 3, 8, 10] (d, m)
[0, 1, 4, 5, 7] (d, m)
[0, 1, 4, 5, 8] (d, m)
[0, 1, 4, 5, 9] (d, m)
[0, 1, 4, 6, 7] (d, m)
[0, 1, 4, 6, 8] (d, m)
[0, 1, 4, 6, 10] (d, m)
[0, 1, 4, 7, 8] (d, m)
[0, 1, 4, 7, 9] (d, m)
[0, 1, 4, 7, 10] (d, m)
[0, 1, 4, 8, 10] (d, m)
[0, 1, 4, 9, 10] (d, m)
[0, 1, 5, 6, 7] (d, m)
[0, 1, 5, 6, 8] (d, m)
[0, 1, 5, 6, 9] (d, m)
[0, 1, 5, 6, 10] (d, m)
[0, 1, 5, 7, 8] (d, m)
[0, 1, 5, 7, 10] (d, m)
[0, 1, 5, 9, 10] (d, m)
[0, 1, 6, 7, 9] (d, m)
[0, 1, 6, 8, 9] (d, m)
[0, 1, 6, 8, 10] (d, m)
[0, 1, 6, 9, 10] (d, m)
[0, 1, 7, 8, 9] (d, m)
[0, 1, 7, 8, 10] (d, m)
[0, 1, 8, 9, 10] (d, m)
_________________________

p = 13, m = 4 (maximal):

[0, 1, 2, 3] (d, m)
[0, 1, 2, 6] (d, m)
[0, 1, 2, 9] (d, m)
[0, 1, 2, 12] (d, m)
[0, 1, 3, 5] (d, m)
[0, 1, 3, 6] (d, m)
[0, 1, 3, 7] (d, m)
[0, 1, 5, 8] (d, m)
[0, 1, 5, 9] (d, m)
[0, 1, 5, 12] (d, m)
[0, 1, 6, 7] (d, m)
[0, 1, 6, 9] (d, m)
[0, 1, 7, 8] (d, m)
[0, 1, 7, 11] (d, m)
[0, 1, 8, 11] (d, m)
[0, 1, 8, 12] (d, m)
[0, 1, 9, 11] (d, m)
[0, 1, 11, 12] (d, m)
____________________________

p = 17, m = 7 (maximal):

[0, 1, 2, 3, 4, 6, 10] (d)
[0, 1, 2, 3, 4, 6, 12] (d, m)
[0, 1, 2, 3, 4, 6, 13] (d, m)
[0, 1, 2, 3, 4, 7, 9] (d)
[0, 1, 2, 3, 4, 8, 15] (d, m)
[0, 1, 2, 3, 4, 9, 12]
[0, 1, 2, 3, 4, 9, 15] (d, m)
[0, 1, 2, 3, 4, 11, 15] (d)
[0, 1, 2, 3, 4, 12, 14] (d, m)
[0, 1, 2, 3, 5, 9, 10] (d, m)
[0, 1, 2, 3, 5, 9, 16] (d)
[0, 1, 2, 3, 5, 10, 11] (d)
[0, 1, 2, 3, 5, 10, 13] (m)
[0, 1, 2, 3, 5, 11, 16] (d, m)
[0, 1, 2, 3, 5, 12, 13] (m)
[0, 1, 2, 3, 5, 12, 16] (d, m)
[0, 1, 2, 3, 6, 8, 16] (d, m)
[0, 1, 2, 3, 6, 9, 10] (d)
[0, 1, 2, 3, 6, 9, 12] (d)
[0, 1, 2, 3, 7, 8, 15]
[0, 1, 2, 3, 7, 9, 12] (m)
[0, 1, 2, 3, 7, 10, 15]
[0, 1, 2, 3, 7, 14, 16] (d)
[0, 1, 2, 3, 8, 11, 13] (m)
[0, 1, 2, 3, 8, 11, 14] (d)
[0, 1, 2, 3, 8, 11, 16]
[0, 1, 2, 3, 8, 14, 16] (d, m)
[0, 1, 2, 3, 9, 10, 15] (d, m)
[0, 1, 2, 3, 10, 11, 14] (d)
[0, 1, 2, 3, 10, 11, 15] (d)
[0, 1, 2, 3, 10, 14, 16] (d, m)
[0, 1, 2, 3, 11, 13, 16] (d, m)
[0, 1, 2, 4, 6, 7, 8]
[0, 1, 2, 4, 6, 7, 12] (d)
[0, 1, 2, 4, 6, 7, 14]
[0, 1, 2, 4, 6, 8, 13] (d, m)
[0, 1, 2, 4, 6, 8, 14] (d, m)
[0, 1, 2, 4, 6, 10, 15] (d)
[0, 1, 2, 4, 7, 8, 15]
[0, 1, 2, 4, 7, 9, 14] (d)
[0, 1, 2, 4, 7, 12, 14] (d)
[0, 1, 2, 4, 8, 9, 13] (d)
[0, 1, 2, 4, 8, 9, 16] (d, m)
[0, 1, 2, 4, 8, 11, 14] (d)
[0, 1, 2, 4, 8, 15, 16] (d)
[0, 1, 2, 4, 9, 10, 16] (d)
[0, 1, 2, 4, 9, 12, 16]
[0, 1, 2, 4, 9, 13, 15] (d, m)
[0, 1, 2, 4, 10, 15, 16] (d, m)
[0, 1, 2, 4, 11, 12, 14]
[0, 1, 2, 4, 11, 12, 15] (m)
[0, 1, 2, 4, 11, 12, 16]
[0, 1, 2, 4, 11, 15, 16] (d, m)
[0, 1, 2, 5, 7, 8, 13] (d)
[0, 1, 2, 5, 7, 8, 15] (m)
[0, 1, 2, 5, 7, 12, 15] (d)
[0, 1, 2, 5, 7, 15, 16] (d, m)
[0, 1, 2, 5, 8, 9, 13] (d)
[0, 1, 2, 5, 8, 9, 16] (d)
[0, 1, 2, 5, 8, 11, 15] (d)
[0, 1, 2, 5, 8, 11, 16] (d)
[0, 1, 2, 5, 10, 11, 13] (m)
[0, 1, 2, 5, 10, 12, 13]
[0, 1, 2, 5, 10, 12, 15] (d)
[0, 1, 2, 5, 11, 13, 15] (d, m)
[0, 1, 2, 5, 12, 13, 15] (m)
[0, 1, 2, 6, 7, 9, 10] (d)
[0, 1, 2, 6, 7, 9, 12] (d)
[0, 1, 2, 6, 7, 9, 14] (m)
[0, 1, 2, 6, 7, 10, 12] (d)
[0, 1, 2, 6, 7, 14, 16]
[0, 1, 2, 6, 8, 9, 13]
[0, 1, 2, 6, 8, 9, 14] (m)
[0, 1, 2, 6, 8, 11, 13]
[0, 1, 2, 6, 8, 11, 16] (m)
[0, 1, 2, 6, 9, 10, 13]
[0, 1, 2, 6, 9, 14, 16]
[0, 1, 2, 6, 10, 11, 13]
[0, 1, 2, 6, 10, 11, 14] (d)
[0, 1, 2, 6, 10, 11, 15] (d)
[0, 1, 2, 6, 11, 12, 14] (d)
[0, 1, 2, 6, 11, 13, 15] (d)
[0, 1, 2, 6, 13, 15, 16] (d, m)
[0, 1, 2, 7, 9, 12, 13] (d, m)
[0, 1, 2, 7, 10, 12, 13] (d)
[0, 1, 2, 7, 10, 12, 16]
[0, 1, 2, 7, 10, 13, 16] (d)
[0, 1, 2, 7, 10, 15, 16]
[0, 1, 2, 7, 12, 13, 15] (d, m)
[0, 1, 2, 7, 13, 15, 16] (d)
[0, 1, 2, 8, 9, 14, 16] (d, m)
[0, 1, 2, 9, 10, 12, 13] (d)
[0, 1, 2, 9, 10, 13, 16] (d, m)
[0, 1, 2, 9, 10, 14, 16] (d)
[0, 1, 2, 9, 13, 15, 16] (d, m)
[0, 1, 2, 10, 12, 15, 16] (d)
[0, 1, 2, 11, 12, 13, 15]
[0, 1, 3, 4, 6, 7, 12]
[0, 1, 3, 4, 6, 8, 10]
[0, 1, 3, 4, 6, 8, 12] (m)
[0, 1, 3, 4, 6, 8, 14] (m)
[0, 1, 3, 4, 6, 10, 13] (d)
[0, 1, 3, 4, 7, 9, 13]
[0, 1, 3, 4, 7, 12, 13]
[0, 1, 3, 4, 7, 13, 15]
[0, 1, 3, 4, 8, 9, 10] (d, m)
[0, 1, 3, 4, 8, 9, 14] (m)
[0, 1, 3, 4, 8, 11, 15] (d)
[0, 1, 3, 4, 8, 12, 14]
[0, 1, 3, 4, 9, 13, 15]
[0, 1, 3, 4, 9, 14, 15]
[0, 1, 3, 4, 11, 12, 13] (d, m)
[0, 1, 3, 4, 11, 13, 15] (m)
[0, 1, 3, 5, 6, 7, 10]
[0, 1, 3, 5, 6, 7, 12] (d)
[0, 1, 3, 5, 6, 7, 16]
[0, 1, 3, 5, 6, 9, 12] (d)
[0, 1, 3, 5, 6, 10, 13]
[0, 1, 3, 5, 6, 11, 14] (d)
[0, 1, 3, 5, 6, 11, 16] (d)
[0, 1, 3, 5, 6, 13, 16]
[0, 1, 3, 5, 7, 9, 14] (d, m)
[0, 1, 3, 5, 7, 12, 16] (d)
[0, 1, 3, 5, 7, 13, 16] (d)
[0, 1, 3, 5, 7, 14, 15] (m)
[0, 1, 3, 5, 9, 10, 13] (d, m)
[0, 1, 3, 5, 9, 12, 13] (d)
[0, 1, 3, 5, 9, 13, 15]
[0, 1, 3, 5, 9, 14, 15]
[0, 1, 3, 5, 9, 14, 16] (d, m)
[0, 1, 3, 5, 10, 11, 15] (d)
[0, 1, 3, 5, 11, 14, 15] (m)
[0, 1, 3, 6, 7, 8, 10] (m)
[0, 1, 3, 6, 7, 8, 12] (d, m)
[0, 1, 3, 6, 7, 9, 14] (d)
[0, 1, 3, 6, 7, 14, 16]
[0, 1, 3, 6, 8, 10, 14]
[0, 1, 3, 6, 8, 13, 16] (d)
[0, 1, 3, 6, 9, 10, 13] (d)
[0, 1, 3, 6, 9, 12, 13] (d)
[0, 1, 3, 6, 11, 12, 13] (d, m)
[0, 1, 3, 6, 11, 13, 16] (d)
[0, 1, 3, 7, 8, 9, 12] (m)
[0, 1, 3, 7, 8, 9, 13] (m)
[0, 1, 3, 7, 8, 12, 16] (d)
[0, 1, 3, 7, 8, 13, 15] (d, m)
[0, 1, 3, 7, 8, 15, 16] (d, m)
[0, 1, 3, 7, 9, 12, 13]
[0, 1, 3, 7, 10, 13, 16] (d)
[0, 1, 3, 7, 10, 14, 15] (d, m)
[0, 1, 3, 7, 14, 15, 16] (d)
[0, 1, 3, 8, 9, 15, 16] (d)
[0, 1, 3, 8, 10, 11, 14]
[0, 1, 3, 8, 11, 12, 13] (m)
[0, 1, 3, 8, 11, 12, 14] (d, m)
[0, 1, 3, 8, 11, 15, 16]
[0, 1, 3, 8, 12, 14, 16] (d)
[0, 1, 3, 9, 14, 15, 16] (d)
[0, 1, 3, 10, 11, 13, 16]
[0, 1, 3, 10, 11, 14, 16]
[0, 1, 3, 10, 11, 15, 16] (m)
[0, 1, 3, 10, 14, 15, 16] (d)
[0, 1, 4, 6, 7, 8, 10] (m)
[0, 1, 4, 6, 7, 10, 15] (d, m)
[0, 1, 4, 6, 7, 12, 16] (d, m)
[0, 1, 4, 6, 7, 14, 16] (m)
[0, 1, 4, 6, 8, 11, 13] (d)
[0, 1, 4, 6, 8, 11, 14] (d)
[0, 1, 4, 6, 10, 12, 13] (m)
[0, 1, 4, 6, 10, 14, 15] (m)
[0, 1, 4, 6, 11, 12, 13] (d)
[0, 1, 4, 6, 11, 14, 16] (d, m)
[0, 1, 4, 6, 14, 15, 16] (d, m)
[0, 1, 4, 7, 8, 9, 10] (d)
[0, 1, 4, 7, 8, 9, 13] (d)
[0, 1, 4, 7, 8, 10, 15]
[0, 1, 4, 7, 8, 12, 16] (d)
[0, 1, 4, 7, 8, 15, 16] (d)
[0, 1, 4, 7, 9, 10, 14] (d)
[0, 1, 4, 7, 10, 12, 13] (d)
[0, 1, 4, 7, 10, 12, 14] (d, m)
[0, 1, 4, 7, 10, 14, 16] (d, m)
[0, 1, 4, 7, 10, 15, 16] (d, m)
[0, 1, 4, 7, 12, 13, 15] (d, m)
[0, 1, 4, 8, 9, 10, 14]
[0, 1, 4, 8, 9, 11, 13] (d, m)
[0, 1, 4, 8, 9, 11, 14] (d)
[0, 1, 4, 8, 10, 12, 13] (d, m)
[0, 1, 4, 8, 10, 12, 15] (m)
[0, 1, 4, 9, 10, 12, 16] (m)
[0, 1, 4, 9, 10, 14, 15]
[0, 1, 4, 9, 11, 12, 15] (d)
[0, 1, 4, 9, 11, 12, 16] (m)
[0, 1, 4, 9, 11, 13, 15] (d)
[0, 1, 4, 9, 11, 14, 16] (d)
[0, 1, 4, 10, 12, 14, 15] (m)
[0, 1, 4, 10, 12, 14, 16] (d)
[0, 1, 4, 11, 12, 14, 16]
[0, 1, 5, 6, 7, 8, 10]
[0, 1, 5, 6, 7, 10, 15] (m)
[0, 1, 5, 6, 7, 12, 14] (d, m)
[0, 1, 5, 6, 7, 12, 15] (d, m)
[0, 1, 5, 6, 7, 14, 15] (d)
[0, 1, 5, 6, 8, 9, 12]
[0, 1, 5, 6, 8, 9, 16] (d)
[0, 1, 5, 6, 8, 10, 14] (d, m)
[0, 1, 5, 6, 8, 11, 14] (d)
[0, 1, 5, 6, 8, 11, 16] (d, m)
[0, 1, 5, 6, 8, 12, 14] (m)
[0, 1, 5, 6, 8, 13, 16] (m)
[0, 1, 5, 6, 9, 11, 15] (m)
[0, 1, 5, 6, 9, 11, 16] (d)
[0, 1, 5, 6, 9, 12, 15] (d)
[0, 1, 5, 6, 9, 13, 15] (d, m)
[0, 1, 5, 6, 11, 14, 15] (m)
[0, 1, 5, 6, 13, 15, 16]
[0, 1, 5, 7, 8, 9, 10] (d, m)
[0, 1, 5, 7, 8, 9, 13] (d)
[0, 1, 5, 7, 8, 10, 12] (d, m)
[0, 1, 5, 7, 8, 12, 16]
[0, 1, 5, 7, 8, 13, 16] (m)
[0, 1, 5, 7, 9, 10, 14] (d, m)
[0, 1, 5, 7, 10, 12, 14] (d, m)
[0, 1, 5, 7, 10, 12, 16]
[0, 1, 5, 7, 10, 15, 16] (m)
[0, 1, 5, 8, 9, 12, 15] (d)
[0, 1, 5, 8, 9, 12, 16]
[0, 1, 5, 8, 9, 13, 15] (d)
[0, 1, 5, 8, 12, 13, 15]
[0, 1, 5, 8, 12, 14, 15] (d, m)
[0, 1, 5, 8, 13, 15, 16]
[0, 1, 5, 9, 10, 11, 13] (d)
[0, 1, 5, 9, 10, 11, 14] (d, m)
[0, 1, 5, 9, 10, 11, 15] (m)
[0, 1, 5, 9, 10, 12, 16] (m)
[0, 1, 5, 9, 10, 13, 16] (d, m)
[0, 1, 5, 9, 10, 14, 16] (d, m)
[0, 1, 5, 9, 11, 14, 15]
[0, 1, 5, 10, 11, 13, 16] (d, m)
[0, 1, 5, 10, 12, 14, 16] (d)
[0, 1, 5, 12, 14, 15, 16] (d)
[0, 1, 6, 8, 9, 10, 11] (d)
[0, 1, 6, 8, 10, 11, 13] (d)
[0, 1, 6, 8, 11, 12, 16] (d, m)
[0, 1, 6, 9, 10, 11, 15] (m)
[0, 1, 6, 9, 10, 12, 13]
[0, 1, 6, 9, 11, 12, 16] (d)
[0, 1, 6, 9, 11, 15, 16]
[0, 1, 6, 9, 12, 13, 15] (d)
[0, 1, 6, 9, 12, 15, 16] (d)
[0, 1, 6, 9, 14, 15, 16]
[0, 1, 6, 10, 11, 12, 15] (d, m)
[0, 1, 6, 10, 12, 14, 15] (m)
[0, 1, 6, 11, 12, 13, 15] (d, m)
[0, 1, 6, 11, 12, 14, 15]
[0, 1, 6, 11, 12, 14, 16] (d, m)
[0, 1, 6, 12, 14, 15, 16] (d)
[0, 1, 7, 8, 9, 10, 12] (d, m)
[0, 1, 7, 8, 13, 15, 16] (d)
[0, 1, 8, 9, 10, 11, 13] (d, m)
[0, 1, 8, 9, 10, 11, 14] (d, m)
[0, 1, 8, 9, 10, 14, 15] (d, m)
[0, 1, 8, 9, 11, 12, 16] (d, m)
[0, 1, 8, 9, 12, 15, 16] (d, m)
[0, 1, 8, 9, 13, 15, 16] (d, m)
[0, 1, 8, 10, 11, 12, 13]
[0, 1, 8, 10, 11, 12, 14]
[0, 1, 8, 10, 11, 12, 15] (m)
[0, 1, 8, 10, 12, 14, 15]
[0, 1, 8, 11, 12, 13, 15]
[0, 1, 8, 12, 14, 15, 16] (d)
[0, 1, 9, 11, 14, 15, 16] (d, m)
[0, 1, 10, 11, 12, 14, 16]
_____________________________

p = 19, m = 6 (maximal):

[0, 1, 2, 3, 7, 15] (d, m)
[0, 1, 2, 4, 11, 14] (d, m)
[0, 1, 2, 4, 14, 15] (d, m)
[0, 1, 2, 6, 7, 17] (d, m)
[0, 1, 2, 6, 11, 14] (d, m)
[0, 1, 2, 6, 14, 18] (d, m)
[0, 1, 2, 7, 10, 15] (d, m)
[0, 1, 2, 7, 10, 17] (d, m)
[0, 1, 3, 4, 7, 14] (d, m)
[0, 1, 3, 4, 9, 14] (d, m)
[0, 1, 3, 4, 9, 16] (d, m)
[0, 1, 3, 7, 9, 10] (d, m)
[0, 1, 3, 7, 9, 14] (d, m)
[0, 1, 3, 7, 10, 15] (d, m)
[0, 1, 3, 9, 11, 16] (d, m)
[0, 1, 3, 10, 13, 18] (d, m)
[0, 1, 3, 11, 13, 14] (d, m)
[0, 1, 3, 11, 13, 15] (d, m)
[0, 1, 3, 11, 15, 16] (d, m)
[0, 1, 3, 13, 14, 18] (d, m)
[0, 1, 3, 13, 15, 16] (d, m)
[0, 1, 4, 5, 7, 15] (d, m)
[0, 1, 4, 5, 7, 17] (d, m)
[0, 1, 4, 5, 9, 17] (d, m)
[0, 1, 4, 9, 11, 16] (d, m)
[0, 1, 4, 9, 11, 17] (d, m)
[0, 1, 4, 11, 14, 15] (d, m)
[0, 1, 4, 11, 16, 17] (d, m)
[0, 1, 5, 6, 7, 9] (d, m)
[0, 1, 5, 6, 9, 16] (d, m)
[0, 1, 5, 6, 16, 18] (d, m)
[0, 1, 5, 7, 9, 17] (d, m)
[0, 1, 5, 7, 13, 15] (d, m)
[0, 1, 5, 10, 13, 17] (d, m)
[0, 1, 5, 10, 13, 18] (d, m)
[0, 1, 5, 13, 15, 16] (d, m)
[0, 1, 5, 13, 17, 18] (d, m)
[0, 1, 6, 7, 9, 17] (d, m)
[0, 1, 6, 9, 14, 18] (d, m)
[0, 1, 6, 9, 16, 18] (d, m)
[0, 1, 6, 11, 13, 17] (d, m)
[0, 1, 6, 11, 16, 17] (d, m)
[0, 1, 6, 13, 16, 17] (d, m)
[0, 1, 10, 11, 13, 17] (d, m)
[0, 1, 11, 13, 14, 15] (d, m)
________________________

p = 23, m = 9 (maximal):

[0, 1, 2, 3, 4, 5, 8, 12, 16]
[0, 1, 2, 3, 4, 5, 10, 12, 16]
[0, 1, 2, 3, 4, 5, 12, 16, 18]
[0, 1, 2, 3, 4, 5, 12, 16, 20]
[0, 1, 2, 3, 4, 6, 7, 12, 18]
[0, 1, 2, 3, 4, 6, 7, 18, 19]
[0, 1, 2, 3, 4, 6, 10, 13, 21]
[0, 1, 2, 3, 4, 6, 11, 13, 17]
[0, 1, 2, 3, 4, 6, 13, 14, 19]
[0, 1, 2, 3, 4, 6, 14, 17, 21]
[0, 1, 2, 3, 4, 7, 11, 15, 22]
[0, 1, 2, 3, 4, 8, 9, 20, 21]
[0, 1, 2, 3, 4, 8, 13, 14, 21]
[0, 1, 2, 3, 4, 9, 11, 15, 22]
[0, 1, 2, 3, 4, 9, 15, 20, 21]
[0, 1, 2, 3, 4, 10, 14, 16, 21]
[0, 1, 2, 3, 4, 11, 15, 17, 22]
[0, 1, 2, 3, 4, 11, 15, 19, 22]
[0, 1, 2, 3, 5, 6, 11, 17, 22]
[0, 1, 2, 3, 5, 6, 17, 18, 22]
[0, 1, 2, 3, 5, 8, 13, 14, 19]
[0, 1, 2, 3, 5, 9, 12, 20, 22]
[0, 1, 2, 3, 5, 10, 12, 16, 22]
[0, 1, 2, 3, 5, 10, 15, 17, 19]
[0, 1, 2, 3, 5, 11, 13, 14, 17]
[0, 1, 2, 3, 5, 12, 13, 18, 22]
[0, 1, 2, 3, 5, 13, 16, 20, 22]
[0, 1, 2, 3, 5, 16, 17, 18, 20]
[0, 1, 2, 3, 6, 8, 9, 10, 21]
[0, 1, 2, 3, 6, 8, 9, 13, 14]
[0, 1, 2, 3, 6, 8, 10, 14, 18]
[0, 1, 2, 3, 6, 8, 12, 14, 19]
[0, 1, 2, 3, 6, 9, 12, 13, 15]
[0, 1, 2, 3, 6, 10, 14, 21, 22]
[0, 1, 2, 3, 7, 8, 11, 16, 18]
[0, 1, 2, 3, 7, 8, 19, 20, 22]
[0, 1, 2, 3, 7, 9, 11, 13, 15]
[0, 1, 2, 3, 7, 9, 11, 16, 21]
[0, 1, 2, 3, 7, 12, 13, 18, 21]
[0, 1, 2, 3, 7, 12, 13, 20, 22]
[0, 1, 2, 3, 7, 12, 14, 18, 20]
[0, 1, 2, 3, 8, 10, 14, 21, 22]
[0, 1, 2, 3, 8, 10, 15, 18, 19]
[0, 1, 2, 3, 8, 12, 16, 18, 20]
[0, 1, 2, 3, 8, 14, 19, 20, 22]
[0, 1, 2, 3, 9, 12, 13, 15, 21]
[0, 1, 2, 3, 9, 13, 15, 20, 22]
[0, 1, 2, 3, 10, 14, 16, 21, 22]
[0, 1, 2, 3, 10, 14, 18, 21, 22]
[0, 1, 2, 3, 11, 13, 14, 17, 20]
[0, 1, 2, 3, 11, 13, 15, 17, 19]
[0, 1, 2, 3, 12, 13, 17, 18, 20]
[0, 1, 2, 4, 5, 6, 12, 15, 16]
[0, 1, 2, 4, 5, 6, 13, 14, 17]
[0, 1, 2, 4, 5, 9, 13, 20, 21]
[0, 1, 2, 4, 5, 9, 16, 17, 18]
[0, 1, 2, 4, 5, 10, 16, 21, 22]
[0, 1, 2, 4, 5, 12, 16, 20, 21]
[0, 1, 2, 4, 5, 15, 16, 19, 21]
[0, 1, 2, 4, 5, 16, 17, 21, 22]
[0, 1, 2, 4, 6, 8, 9, 10, 13]
[0, 1, 2, 4, 6, 8, 9, 10, 16]
[0, 1, 2, 4, 6, 8, 9, 10, 17]
[0, 1, 2, 4, 6, 8, 9, 10, 20]
[0, 1, 2, 4, 6, 8, 12, 13, 14]
[0, 1, 2, 4, 6, 9, 10, 20, 21]
[0, 1, 2, 4, 6, 9, 13, 16, 17]
[0, 1, 2, 4, 6, 10, 17, 18, 21]
[0, 1, 2, 4, 7, 8, 9, 10, 12]
[0, 1, 2, 4, 7, 8, 15, 19, 21]
[0, 1, 2, 4, 7, 9, 11, 15, 19]
[0, 1, 2, 4, 7, 12, 13, 18, 22]
[0, 1, 2, 4, 8, 9, 10, 17, 19]
[0, 1, 2, 4, 8, 11, 19, 21, 22]
[0, 1, 2, 4, 8, 14, 16, 18, 20]
[0, 1, 2, 4, 9, 11, 15, 21, 22]
[0, 1, 2, 4, 9, 14, 16, 18, 22]
[0, 1, 2, 4, 9, 15, 16, 18, 19]
[0, 1, 2, 4, 10, 12, 13, 16, 22]
[0, 1, 2, 4, 11, 12, 17, 21, 22]
[0, 1, 2, 4, 12, 15, 19, 21, 22]
[0, 1, 2, 4, 15, 16, 17, 19, 22]
[0, 1, 2, 5, 6, 8, 11, 12, 18]
[0, 1, 2, 5, 6, 8, 12, 13, 14]
[0, 1, 2, 5, 6, 9, 15, 18, 20]
[0, 1, 2, 5, 7, 8, 9, 20, 22]
[0, 1, 2, 5, 7, 8, 12, 13, 22]
[0, 1, 2, 5, 7, 9, 11, 17, 21]
[0, 1, 2, 5, 7, 9, 13, 17, 22]
[0, 1, 2, 5, 7, 9, 14, 17, 19]
[0, 1, 2, 5, 7, 10, 14, 17, 19]
[0, 1, 2, 5, 7, 10, 16, 19, 20]
[0, 1, 2, 5, 7, 11, 13, 18, 22]
[0, 1, 2, 5, 8, 11, 12, 14, 22]
[0, 1, 2, 5, 9, 10, 14, 17, 18]
[0, 1, 2, 5, 9, 10, 15, 16, 19]
[0, 1, 2, 5, 9, 11, 13, 16, 17]
[0, 1, 2, 5, 9, 13, 20, 21, 22]
[0, 1, 2, 5, 15, 16, 17, 19, 21]
[0, 1, 2, 6, 7, 9, 10, 16, 21]
[0, 1, 2, 6, 7, 10, 15, 17, 22]
[0, 1, 2, 6, 7, 18, 19, 21, 22]
[0, 1, 2, 6, 8, 9, 10, 14, 16]
[0, 1, 2, 6, 8, 9, 12, 13, 14]
[0, 1, 2, 6, 8, 10, 12, 13, 14]
[0, 1, 2, 6, 8, 10, 12, 14, 22]
[0, 1, 2, 6, 8, 10, 15, 20, 22]
[0, 1, 2, 6, 8, 11, 15, 18, 20]
[0, 1, 2, 6, 8, 11, 16, 18, 20]
[0, 1, 2, 6, 8, 15, 16, 17, 21]
[0, 1, 2, 6, 9, 10, 15, 16, 20]
[0, 1, 2, 6, 9, 11, 12, 15, 18]
[0, 1, 2, 6, 10, 14, 16, 18, 21]
[0, 1, 2, 6, 11, 12, 17, 20, 22]
[0, 1, 2, 6, 11, 12, 19, 21, 22]
[0, 1, 2, 6, 11, 13, 17, 19, 22]
[0, 1, 2, 7, 8, 9, 11, 12, 16]
[0, 1, 2, 7, 8, 9, 16, 20, 21]
[0, 1, 2, 7, 8, 11, 15, 16, 20]
[0, 1, 2, 7, 9, 13, 20, 21, 22]
[0, 1, 2, 7, 9, 14, 17, 18, 22]
[0, 1, 2, 7, 10, 13, 14, 16, 19]
[0, 1, 2, 7, 11, 15, 17, 19, 22]
[0, 1, 2, 7, 13, 14, 17, 19, 20]
[0, 1, 2, 7, 13, 18, 19, 21, 22]
[0, 1, 2, 8, 9, 12, 14, 16, 20]
[0, 1, 2, 8, 9, 12, 16, 19, 21]
[0, 1, 2, 8, 11, 12, 14, 20, 22]
[0, 1, 2, 8, 11, 12, 19, 20, 21]
[0, 1, 2, 8, 12, 14, 19, 21, 22]
[0, 1, 2, 8, 15, 16, 17, 19, 21]
[0, 1, 2, 9, 10, 13, 19, 20, 21]
[0, 1, 2, 9, 11, 15, 16, 17, 19]
[0, 1, 2, 9, 13, 14, 16, 17, 18]
[0, 1, 2, 9, 13, 15, 20, 21, 22]
[0, 1, 2, 9, 13, 17, 20, 21, 22]
[0, 1, 2, 9, 15, 16, 17, 19, 21]
[0, 1, 2, 10, 12, 13, 16, 19, 22]
[0, 1, 2, 10, 12, 14, 16, 18, 22]
[0, 1, 2, 11, 12, 13, 15, 17, 19]
[0, 1, 2, 11, 12, 13, 16, 17, 19]
[0, 1, 2, 11, 12, 13, 17, 19, 20]
[0, 1, 2, 11, 12, 13, 17, 19, 21]
[0, 1, 2, 11, 12, 16, 17, 19, 22]
[0, 1, 2, 12, 15, 16, 17, 19, 21]
[0, 1, 2, 13, 15, 16, 17, 18, 21]
[0, 1, 3, 4, 5, 6, 7, 11, 12]
[0, 1, 3, 4, 5, 6, 7, 12, 18]
[0, 1, 3, 4, 5, 7, 8, 12, 16]
[0, 1, 3, 4, 5, 7, 8, 15, 19]
[0, 1, 3, 4, 5, 7, 9, 12, 13]
[0, 1, 3, 4, 5, 10, 11, 12, 19]
[0, 1, 3, 4, 5, 11, 14, 15, 22]
[0, 1, 3, 4, 5, 12, 13, 16, 22]
[0, 1, 3, 4, 6, 7, 9, 17, 18]
[0, 1, 3, 4, 6, 7, 12, 13, 21]
[0, 1, 3, 4, 6, 7, 12, 14, 18]
[0, 1, 3, 4, 6, 7, 12, 16, 18]
[0, 1, 3, 4, 6, 9, 12, 14, 17]
[0, 1, 3, 4, 6, 9, 16, 18, 19]
[0, 1, 3, 4, 6, 13, 16, 18, 19]
[0, 1, 3, 4, 6, 14, 15, 20, 21]
[0, 1, 3, 4, 7, 12, 13, 16, 18]
[0, 1, 3, 4, 7, 13, 14, 16, 19]
[0, 1, 3, 4, 8, 9, 10, 12, 17] (m)
[0, 1, 3, 4, 8, 9, 11, 14, 21]
[0, 1, 3, 4, 8, 9, 11, 18, 21]
[0, 1, 3, 4, 8, 10, 15, 17, 18]
[0, 1, 3, 4, 8, 11, 13, 14, 20]
[0, 1, 3, 4, 8, 12, 19, 20, 22]
[0, 1, 3, 4, 8, 15, 16, 17, 22]
[0, 1, 3, 4, 9, 10, 12, 17, 19]
[0, 1, 3, 4, 9, 10, 18, 20, 21]
[0, 1, 3, 4, 9, 11, 14, 15, 20]
[0, 1, 3, 4, 9, 11, 15, 20, 21]
[0, 1, 3, 4, 9, 13, 15, 20, 21]
[0, 1, 3, 4, 9, 15, 20, 21, 22]
[0, 1, 3, 4, 10, 13, 15, 18, 21]
[0, 1, 3, 4, 10, 15, 17, 18, 19]
[0, 1, 3, 4, 11, 15, 19, 20, 22]
[0, 1, 3, 4, 14, 15, 18, 20, 22]
[0, 1, 3, 4, 15, 16, 20, 21, 22]
[0, 1, 3, 5, 7, 8, 9, 12, 22]
[0, 1, 3, 5, 7, 8, 9, 15, 22]
[0, 1, 3, 5, 7, 8, 9, 16, 22]
[0, 1, 3, 5, 7, 8, 9, 19, 22]
[0, 1, 3, 5, 7, 10, 14, 15, 17]
[0, 1, 3, 5, 7, 10, 15, 19, 20]
[0, 1, 3, 5, 7, 11, 12, 13, 22]
[0, 1, 3, 5, 8, 9, 15, 16, 19]
[0, 1, 3, 5, 8, 9, 19, 20, 22]
[0, 1, 3, 5, 8, 10, 12, 16, 19]
[0, 1, 3, 5, 8, 10, 15, 17, 18]
[0, 1, 3, 5, 8, 12, 15, 16, 22]
[0, 1, 3, 5, 8, 13, 14, 17, 18]
[0, 1, 3, 5, 9, 16, 17, 20, 22]
[0, 1, 3, 5, 10, 13, 14, 17, 18]
[0, 1, 3, 5, 11, 12, 15, 19, 20]
[0, 1, 3, 6, 7, 8, 9, 11, 22]
[0, 1, 3, 6, 7, 8, 9, 18, 19]
[0, 1, 3, 6, 7, 9, 17, 19, 20]
[0, 1, 3, 6, 7, 13, 16, 18, 19]
[0, 1, 3, 6, 7, 13, 18, 19, 20]
[0, 1, 3, 6, 7, 14, 18, 20, 22]
[0, 1, 3, 6, 8, 10, 13, 15, 18]
[0, 1, 3, 6, 8, 10, 14, 18, 22]
[0, 1, 3, 6, 9, 11, 13, 18, 19]
[0, 1, 3, 6, 9, 11, 14, 19, 20]
[0, 1, 3, 6, 9, 11, 14, 20, 21]
[0, 1, 3, 6, 9, 11, 15, 16, 19]
[0, 1, 3, 6, 9, 12, 16, 17, 19]
[0, 1, 3, 6, 10, 11, 12, 17, 20]
[0, 1, 3, 6, 10, 11, 13, 14, 17]
[0, 1, 3, 6, 10, 13, 14, 19, 20]
[0, 1, 3, 6, 10, 13, 15, 19, 20]
[0, 1, 3, 6, 11, 12, 17, 21, 22]
[0, 1, 3, 6, 11, 13, 17, 19, 20]
[0, 1, 3, 6, 12, 13, 16, 18, 19]
[0, 1, 3, 6, 13, 15, 16, 18, 19]
[0, 1, 3, 6, 13, 15, 16, 20, 21]
[0, 1, 3, 7, 8, 9, 16, 18, 22]
[0, 1, 3, 7, 8, 9, 18, 19, 20]
[0, 1, 3, 7, 8, 10, 13, 16, 19]
[0, 1, 3, 7, 9, 14, 17, 19, 20]
[0, 1, 3, 7, 10, 18, 20, 21, 22]
[0, 1, 3, 7, 13, 15, 17, 19, 22]
[0, 1, 3, 8, 10, 13, 15, 17, 18]
[0, 1, 3, 8, 10, 14, 15, 17, 18]
[0, 1, 3, 8, 10, 14, 20, 21, 22]
[0, 1, 3, 8, 13, 15, 17, 21, 22]
[0, 1, 3, 8, 14, 15, 17, 18, 22]
[0, 1, 3, 9, 10, 12, 14, 16, 19]
[0, 1, 3, 9, 11, 12, 13, 14, 20]
[0, 1, 3, 9, 11, 12, 15, 21, 22]
[0, 1, 3, 10, 11, 16, 20, 21, 22]
[0, 1, 3, 10, 13, 15, 16, 18, 19]
[0, 1, 3, 10, 13, 15, 16, 20, 21]
[0, 1, 3, 11, 12, 13, 14, 17, 20]
[0, 1, 3, 11, 12, 17, 18, 20, 21]
[0, 1, 3, 11, 13, 14, 17, 18, 20]
[0, 1, 3, 11, 13, 14, 17, 19, 20]
[0, 1, 3, 11, 14, 18, 20, 21, 22]
[0, 1, 3, 14, 15, 16, 18, 21, 22]
[0, 1, 4, 5, 6, 9, 11, 14, 20]
[0, 1, 4, 5, 6, 11, 17, 18, 21]
[0, 1, 4, 5, 6, 15, 16, 17, 21]
[0, 1, 4, 5, 7, 9, 11, 14, 19]
[0, 1, 4, 5, 7, 9, 15, 16, 19]
[0, 1, 4, 5, 7, 10, 11, 13, 21]
[0, 1, 4, 5, 7, 10, 11, 17, 22]
[0, 1, 4, 5, 7, 10, 13, 15, 18]
[0, 1, 4, 5, 7, 10, 14, 17, 18]
[0, 1, 4, 5, 7, 10, 14, 17, 19]
[0, 1, 4, 5, 7, 10, 15, 17, 21]
[0, 1, 4, 5, 7, 11, 12, 13, 22]
[0, 1, 4, 5, 7, 11, 13, 18, 21]
[0, 1, 4, 5, 7, 15, 17, 18, 21]
[0, 1, 4, 5, 8, 13, 15, 17, 18]
[0, 1, 4, 5, 8, 14, 17, 19, 22]
[0, 1, 4, 5, 9, 11, 14, 18, 21]
[0, 1, 4, 5, 9, 12, 13, 19, 21]
[0, 1, 4, 5, 9, 14, 17, 19, 21]
[0, 1, 4, 5, 10, 11, 13, 15, 18]
[0, 1, 4, 5, 10, 11, 13, 15, 20]
[0, 1, 4, 5, 10, 11, 14, 18, 21]
[0, 1, 4, 5, 10, 13, 15, 17, 18]
[0, 1, 4, 5, 10, 13, 15, 18, 21]
[0, 1, 4, 6, 7, 8, 10, 12, 16]
[0, 1, 4, 6, 7, 8, 19, 21, 22]
[0, 1, 4, 6, 7, 10, 11, 12, 17]
[0, 1, 4, 6, 7, 10, 11, 13, 21]
[0, 1, 4, 6, 7, 11, 12, 14, 17]
[0, 1, 4, 6, 7, 11, 12, 21, 22]
[0, 1, 4, 6, 8, 9, 10, 12, 13]
[0, 1, 4, 6, 8, 9, 13, 16, 17]
[0, 1, 4, 6, 8, 10, 16, 20, 22]
[0, 1, 4, 6, 8, 12, 15, 16, 17]
[0, 1, 4, 6, 8, 12, 16, 21, 22]
[0, 1, 4, 6, 8, 13, 16, 18, 22]
[0, 1, 4, 6, 9, 13, 16, 18, 22]
[0, 1, 4, 6, 9, 15, 18, 19, 22]
[0, 1, 4, 6, 10, 12, 17, 21, 22]
[0, 1, 4, 6, 11, 12, 14, 15, 18]
[0, 1, 4, 7, 10, 11, 12, 13, 21]
[0, 1, 4, 7, 10, 11, 13, 21, 22]
[0, 1, 4, 7, 12, 13, 14, 18, 21]
[0, 1, 4, 8, 9, 10, 13, 17, 18]
[0, 1, 4, 8, 9, 11, 13, 16, 17]
[0, 1, 4, 8, 9, 11, 14, 17, 19]
[0, 1, 4, 8, 9, 12, 13, 15, 17]
[0, 1, 4, 8, 9, 13, 16, 17, 18]
[0, 1, 4, 8, 9, 13, 16, 17, 22]
[0, 1, 4, 8, 9, 14, 15, 18, 22]
[0, 1, 4, 8, 10, 12, 15, 16, 22]
[0, 1, 4, 8, 10, 12, 15, 17, 19]
[0, 1, 4, 8, 11, 13, 14, 17, 18]
[0, 1, 4, 8, 11, 13, 15, 16, 17]
[0, 1, 4, 8, 12, 19, 20, 21, 22]
[0, 1, 4, 9, 10, 13, 15, 20, 21]
[0, 1, 4, 9, 11, 13, 14, 19, 20]
[0, 1, 4, 9, 11, 16, 17, 18, 19]
[0, 1, 4, 10, 11, 12, 13, 15, 21]
[0, 1, 4, 10, 11, 12, 14, 15, 16]
[0, 1, 4, 10, 11, 13, 16, 20, 21]
[0, 1, 4, 10, 13, 15, 18, 19, 20]
[0, 1, 4, 14, 15, 16, 18, 20, 22]
[0, 1, 5, 6, 7, 8, 9, 11, 12]
[0, 1, 5, 6, 7, 8, 13, 15, 20]
[0, 1, 5, 6, 7, 9, 14, 20, 21]
[0, 1, 5, 6, 8, 9, 11, 14, 21]
[0, 1, 5, 6, 8, 9, 11, 18, 21]
[0, 1, 5, 6, 8, 9, 15, 20, 22] (m)
[0, 1, 5, 6, 8, 11, 12, 13, 14]
[0, 1, 5, 6, 8, 11, 12, 18, 21]
[0, 1, 5, 6, 8, 11, 14, 16, 18]
[0, 1, 5, 6, 8, 11, 17, 18, 21]
[0, 1, 5, 6, 8, 11, 18, 20, 21]
[0, 1, 5, 6, 8, 15, 18, 20, 21]
[0, 1, 5, 6, 9, 14, 16, 21, 22]
[0, 1, 5, 6, 11, 13, 15, 18, 21]
[0, 1, 5, 6, 15, 16, 17, 18, 21]
[0, 1, 5, 6, 17, 18, 20, 21, 22]
[0, 1, 5, 7, 8, 9, 13, 15, 22]
[0, 1, 5, 7, 8, 11, 12, 13, 22]
[0, 1, 5, 7, 8, 12, 15, 18, 21]
[0, 1, 5, 7, 9, 11, 12, 13, 22]
[0, 1, 5, 7, 9, 11, 13, 21, 22]
[0, 1, 5, 7, 9, 12, 14, 16, 20]
[0, 1, 5, 7, 9, 14, 19, 21, 22]
[0, 1, 5, 7, 10, 13, 15, 16, 20]
[0, 1, 5, 7, 10, 14, 17, 19, 20]
[0, 1, 5, 7, 10, 14, 17, 19, 22]
[0, 1, 5, 7, 10, 15, 17, 19, 22]
[0, 1, 5, 7, 12, 14, 15, 20, 21]
[0, 1, 5, 7, 14, 15, 16, 20, 22]
[0, 1, 5, 8, 9, 10, 14, 17, 18]
[0, 1, 5, 8, 9, 10, 15, 16, 19]
[0, 1, 5, 8, 9, 13, 15, 18, 21]
[0, 1, 5, 8, 9, 14, 15, 16, 19]
[0, 1, 5, 8, 9, 14, 15, 19, 22]
[0, 1, 5, 8, 9, 15, 16, 19, 21]
[0, 1, 5, 8, 9, 15, 17, 19, 20]
[0, 1, 5, 8, 10, 11, 14, 17, 22]
[0, 1, 5, 8, 10, 11, 17, 20, 21]
[0, 1, 5, 8, 10, 12, 14, 15, 21]
[0, 1, 5, 8, 11, 14, 16, 17, 21]
[0, 1, 5, 8, 12, 14, 16, 19, 21]
[0, 1, 5, 9, 13, 15, 17, 20, 22]
[0, 1, 5, 9, 16, 17, 19, 20, 21]
[0, 1, 5, 10, 11, 16, 19, 21, 22]
[0, 1, 5, 10, 11, 18, 20, 21, 22]
[0, 1, 5, 10, 12, 16, 18, 21, 22]
[0, 1, 5, 10, 13, 15, 17, 19, 20]
[0, 1, 5, 12, 13, 14, 19, 20, 21]
[0, 1, 6, 7, 8, 10, 11, 15, 22]
[0, 1, 6, 7, 8, 11, 15, 16, 20]
[0, 1, 6, 7, 8, 15, 19, 20, 22]
[0, 1, 6, 7, 9, 10, 12, 13, 15]
[0, 1, 6, 7, 9, 10, 14, 16, 21]
[0, 1, 6, 7, 9, 11, 14, 16, 21]
[0, 1, 6, 7, 9, 11, 14, 19, 20]
[0, 1, 6, 7, 9, 11, 16, 19, 20]
[0, 1, 6, 7, 9, 14, 16, 19, 21]
[0, 1, 6, 7, 9, 14, 16, 20, 21]
[0, 1, 6, 7, 10, 11, 13, 16, 20]
[0, 1, 6, 7, 10, 11, 14, 19, 21]
[0, 1, 6, 7, 10, 11, 16, 19, 21]
[0, 1, 6, 7, 10, 14, 15, 16, 19]
[0, 1, 6, 7, 10, 14, 15, 19, 22]
[0, 1, 6, 7, 10, 14, 17, 19, 20]
[0, 1, 6, 7, 11, 14, 15, 16, 20]
[0, 1, 6, 7, 15, 17, 18, 20, 21]
[0, 1, 6, 8, 10, 13, 16, 18, 19]
[0, 1, 6, 8, 11, 12, 17, 20, 21]
[0, 1, 6, 8, 12, 17, 18, 20, 21]
[0, 1, 6, 8, 12, 19, 20, 21, 22]
[0, 1, 6, 8, 13, 16, 17, 21, 22]
[0, 1, 6, 9, 10, 12, 13, 18, 20]
[0, 1, 6, 9, 11, 12, 13, 14, 18]
[0, 1, 6, 9, 11, 13, 14, 19, 20]
[0, 1, 6, 9, 11, 14, 16, 18, 21]
[0, 1, 6, 9, 11, 14, 17, 19, 20]
[0, 1, 6, 9, 12, 13, 15, 18, 22]
[0, 1, 6, 10, 11, 12, 13, 14, 16]
[0, 1, 6, 10, 11, 12, 13, 15, 18]
[0, 1, 6, 10, 12, 17, 18, 20, 21]
[0, 1, 6, 10, 14, 16, 18, 21, 22]
[0, 1, 6, 12, 13, 16, 18, 19, 22]
[0, 1, 6, 12, 17, 18, 19, 20, 21]
[0, 1, 6, 12, 17, 18, 20, 21, 22]
[0, 1, 7, 8, 9, 11, 13, 16, 20]
[0, 1, 7, 8, 9, 12, 16, 18, 20]
[0, 1, 7, 8, 11, 13, 15, 16, 20]
[0, 1, 7, 8, 11, 13, 15, 19, 22]
[0, 1, 7, 8, 11, 15, 16, 18, 20]
[0, 1, 7, 8, 11, 15, 18, 20, 22]
[0, 1, 7, 9, 10, 14, 17, 19, 21]
[0, 1, 7, 9, 11, 12, 15, 16, 20]
[0, 1, 7, 10, 11, 13, 14, 18, 21]
[0, 1, 7, 10, 11, 13, 19, 21, 22]
[0, 1, 7, 10, 11, 18, 19, 20, 22]
[0, 1, 7, 10, 12, 13, 17, 18, 20]
[0, 1, 7, 10, 12, 15, 18, 20, 21]
[0, 1, 7, 11, 13, 18, 20, 21, 22]
[0, 1, 7, 12, 13, 14, 17, 18, 20]
[0, 1, 7, 12, 14, 15, 16, 20, 21]
[0, 1, 7, 14, 15, 16, 18, 20, 22]
[0, 1, 8, 9, 10, 12, 13, 14, 20]
[0, 1, 8, 9, 12, 18, 19, 20, 22]
[0, 1, 8, 10, 11, 12, 13, 14, 18]
[0, 1, 8, 10, 14, 15, 16, 18, 22]
[0, 1, 8, 12, 13, 15, 16, 17, 22]
[0, 1, 8, 12, 14, 16, 17, 18, 20]
[0, 1, 8, 12, 14, 19, 20, 21, 22]
[0, 1, 8, 12, 16, 17, 19, 20, 21]
[0, 1, 8, 12, 16, 19, 20, 21, 22]
[0, 1, 8, 14, 15, 16, 18, 20, 22]
[0, 1, 9, 11, 12, 14, 15, 17, 18]
[0, 1, 9, 11, 12, 15, 18, 21, 22]
[0, 1, 9, 11, 13, 15, 17, 21, 22]
[0, 1, 10, 11, 12, 13, 16, 18, 19]
[0, 1, 10, 11, 12, 14, 16, 18, 22]
[0, 1, 10, 11, 12, 15, 16, 18, 22]
[0, 1, 10, 11, 12, 16, 18, 19, 22]
[0, 1, 10, 11, 12, 16, 18, 20, 22]
[0, 1, 10, 11, 15, 16, 18, 21, 22]
[0, 1, 11, 12, 14, 15, 16, 18, 20]
[0, 1, 11, 12, 15, 17, 19, 20, 21]
[0, 1, 11, 14, 15, 16, 18, 20, 22]
[0, 1, 12, 13, 15, 16, 17, 18, 19]
[0, 1, 12, 13, 17, 18, 19, 20, 21]
[0, 1, 12, 14, 15, 16, 17, 20, 22]
________________________

p = 29, m = 10 (not sure if maximal):

[0, 1, 2, 3, 4, 5, 6, 10, 18, 23]
[0, 1, 2, 3, 4, 5, 6, 12, 17, 25]
[0, 1, 2, 3, 4, 5, 9, 17, 22, 28]
[0, 1, 2, 3, 4, 5, 11, 16, 24, 28]
[0, 1, 2, 3, 4, 6, 7, 11, 12, 21]
[0, 1, 2, 3, 4, 6, 7, 11, 12, 27]
[0, 1, 2, 3, 4, 6, 7, 18, 21, 27]
[0, 1, 2, 3, 4, 6, 9, 13, 20, 26]
[0, 1, 2, 3, 4, 6, 9, 15, 18, 26]
[0, 1, 2, 3, 4, 6, 12, 15, 26, 27]
[0, 1, 2, 3, 4, 6, 12, 18, 21, 22]
[0, 1, 2, 3, 4, 6, 14, 16, 22, 26] (d)
[0, 1, 2, 3, 4, 6, 21, 22, 26, 27]
[0, 1, 2, 3, 4, 7, 11, 16, 19, 21] (d)
[0, 1, 2, 3, 4, 7, 11, 17, 19, 27] (d)
[0, 1, 2, 3, 4, 7, 13, 20, 24, 27]
[0, 1, 2, 3, 4, 7, 14, 16, 17, 23]
[0, 1, 2, 3, 4, 7, 15, 18, 24, 27]
[0, 1, 2, 3, 4, 7, 16, 17, 19, 21]
[0, 1, 2, 3, 4, 7, 17, 19, 21, 25]
[0, 1, 2, 3, 4, 8, 12, 14, 16, 26]
[0, 1, 2, 3, 4, 8, 15, 18, 21, 22]
[0, 1, 2, 3, 4, 8, 16, 21, 27, 28]
[0, 1, 2, 3, 4, 10, 15, 23, 27, 28]
[0, 1, 2, 3, 4, 10, 16, 17, 19, 26]
[0, 1, 2, 3, 4, 11, 12, 15, 18, 25]
[0, 1, 2, 3, 4, 11, 12, 15, 21, 27]
[0, 1, 2, 3, 4, 12, 14, 16, 17, 26]
[0, 1, 2, 3, 4, 12, 14, 17, 22, 26] (d)
[0, 1, 2, 3, 4, 12, 21, 22, 26, 27]
[0, 1, 2, 3, 5, 6, 10, 11, 12, 21]
[0, 1, 2, 3, 5, 6, 10, 11, 20, 28]
[0, 1, 2, 3, 5, 6, 10, 11, 26, 28]
[0, 1, 2, 3, 5, 6, 11, 12, 25, 26]
[0, 1, 2, 3, 5, 6, 13, 20, 25, 26]
[0, 1, 2, 3, 5, 6, 17, 20, 26, 28]
[0, 1, 2, 3, 5, 8, 12, 16, 19, 23]
[0, 1, 2, 3, 5, 8, 12, 19, 25, 28]
[0, 1, 2, 3, 5, 8, 14, 17, 25, 28]
[0, 1, 2, 3, 5, 9, 15, 16, 17, 26]
[0, 1, 2, 3, 5, 10, 11, 13, 17, 21]
[0, 1, 2, 3, 5, 10, 15, 18, 20, 23]
[0, 1, 2, 3, 5, 11, 14, 25, 26, 28]
[0, 1, 2, 3, 5, 11, 17, 20, 21, 28]
[0, 1, 2, 3, 5, 11, 19, 21, 22, 24]
[0, 1, 2, 3, 5, 13, 15, 21, 25, 28] (d)
[0, 1, 2, 3, 5, 20, 21, 25, 26, 28]
[0, 1, 2, 3, 6, 7, 9, 13, 24, 25]
[0, 1, 2, 3, 6, 7, 12, 19, 26, 27]
[0, 1, 2, 3, 6, 7, 14, 16, 23, 26] (d)
[0, 1, 2, 3, 6, 7, 16, 18, 24, 25]
[0, 1, 2, 3, 6, 7, 20, 21, 26, 27]
[0, 1, 2, 3, 6, 9, 11, 15, 16, 25]
[0, 1, 2, 3, 6, 9, 16, 18, 25, 26] (d)
[0, 1, 2, 3, 6, 10, 15, 18, 20, 28] (d)
[0, 1, 2, 3, 6, 10, 16, 18, 26, 28] (d)
[0, 1, 2, 3, 6, 12, 19, 23, 26, 28]
[0, 1, 2, 3, 6, 13, 15, 16, 22, 28]
[0, 1, 2, 3, 6, 14, 17, 23, 26, 28]
[0, 1, 2, 3, 6, 15, 16, 17, 23, 27]
[0, 1, 2, 3, 6, 15, 16, 18, 20, 25]
[0, 1, 2, 3, 6, 15, 16, 18, 20, 28]
[0, 1, 2, 3, 6, 16, 18, 20, 24, 28]
[0, 1, 2, 3, 7, 8, 11, 13, 15, 16] (d)
[0, 1, 2, 3, 7, 8, 14, 16, 25, 26]
[0, 1, 2, 3, 7, 8, 19, 23, 25, 26]
[0, 1, 2, 3, 7, 9, 11, 15, 18, 25] (d)
[0, 1, 2, 3, 7, 11, 13, 15, 25, 28]
[0, 1, 2, 3, 7, 11, 14, 16, 20, 21] (d)
[0, 1, 2, 3, 7, 12, 14, 16, 17, 26]
[0, 1, 2, 3, 7, 12, 17, 19, 21, 24]
[0, 1, 2, 3, 7, 14, 17, 20, 21, 28]
[0, 1, 2, 3, 7, 14, 17, 21, 23, 25] (d)
[0, 1, 2, 3, 7, 15, 20, 26, 27, 28]
[0, 1, 2, 3, 7, 16, 17, 21, 23, 26]
[0, 1, 2, 3, 8, 10, 11, 12, 18, 21]
[0, 1, 2, 3, 8, 10, 11, 13, 21, 27]
[0, 1, 2, 3, 8, 10, 12, 14, 18, 20]
[0, 1, 2, 3, 8, 10, 12, 15, 18, 21] (d)
[0, 1, 2, 3, 8, 11, 13, 15, 20, 25]
[0, 1, 2, 3, 9, 12, 14, 17, 22, 27]
[0, 1, 2, 3, 9, 13, 15, 16, 19, 22]
[0, 1, 2, 3, 9, 13, 16, 20, 24, 27]
[0, 1, 2, 3, 9, 14, 22, 26, 27, 28]
[0, 1, 2, 3, 9, 15, 16, 18, 25, 28]
[0, 1, 2, 3, 10, 11, 14, 17, 24, 28]
[0, 1, 2, 3, 10, 11, 14, 20, 26, 28]
[0, 1, 2, 3, 10, 13, 15, 16, 19, 21]
[0, 1, 2, 3, 10, 13, 16, 17, 19, 23]
[0, 1, 2, 3, 11, 12, 16, 18, 21, 25] (d)
[0, 1, 2, 3, 11, 13, 15, 16, 25, 28]
[0, 1, 2, 3, 11, 13, 16, 17, 19, 22]
[0, 1, 2, 3, 11, 13, 16, 21, 25, 28] (d)
[0, 1, 2, 3, 11, 14, 17, 20, 22, 24] (d)
[0, 1, 2, 3, 11, 14, 20, 21, 22, 24]
[0, 1, 2, 3, 11, 15, 19, 21, 22, 27]
[0, 1, 2, 3, 11, 20, 21, 22, 26, 27]
[0, 1, 2, 3, 11, 20, 21, 25, 26, 28]
[0, 1, 2, 3, 12, 14, 18, 20, 22, 24]
[0, 1, 2, 3, 16, 17, 19, 21, 24, 25] (d)
[0, 1, 2, 4, 5, 9, 10, 11, 20, 28]
[0, 1, 2, 4, 5, 9, 10, 17, 25, 27]
[0, 1, 2, 4, 5, 9, 10, 19, 27, 28]
[0, 1, 2, 4, 5, 9, 10, 25, 27, 28]
[0, 1, 2, 4, 5, 10, 11, 24, 25, 28]
[0, 1, 2, 4, 5, 10, 12, 17, 19, 27]
[0, 1, 2, 4, 5, 10, 12, 19, 21, 24]
[0, 1, 2, 4, 5, 10, 16, 19, 21, 27] (d)
[0, 1, 2, 4, 5, 10, 18, 21, 25, 27] (d)
[0, 1, 2, 4, 5, 11, 19, 20, 22, 27] (d)
[0, 1, 2, 4, 5, 12, 19, 24, 25, 28]
[0, 1, 2, 4, 5, 16, 19, 25, 27, 28]
[0, 1, 2, 4, 6, 7, 8, 12, 18, 23]
[0, 1, 2, 4, 6, 7, 8, 13, 15, 16]
[0, 1, 2, 4, 6, 7, 8, 14, 19, 25]
[0, 1, 2, 4, 6, 7, 8, 21, 22, 24]
[0, 1, 2, 4, 6, 7, 10, 11, 17, 20]
[0, 1, 2, 4, 6, 7, 11, 12, 20, 27] (d)
[0, 1, 2, 4, 6, 7, 13, 16, 20, 24] (d)
[0, 1, 2, 4, 6, 7, 14, 18, 21, 22] (d)
[0, 1, 2, 4, 6, 8, 12, 23, 24, 25]
[0, 1, 2, 4, 6, 8, 13, 22, 24, 25]
[0, 1, 2, 4, 6, 8, 17, 20, 25, 27]
[0, 1, 2, 4, 6, 9, 13, 15, 22, 25]
[0, 1, 2, 4, 6, 10, 13, 21, 26, 27] (d)
[0, 1, 2, 4, 6, 11, 14, 23, 25, 27]
[0, 1, 2, 4, 6, 11, 16, 21, 22, 26]
[0, 1, 2, 4, 6, 14, 21, 22, 26, 27]
[0, 1, 2, 4, 7, 8, 13, 16, 23, 24]
[0, 1, 2, 4, 7, 8, 14, 15, 22, 27]
[0, 1, 2, 4, 7, 10, 11, 12, 20, 23]
[0, 1, 2, 4, 7, 10, 13, 20, 21, 23]
[0, 1, 2, 4, 7, 11, 12, 16, 20, 24]
[0, 1, 2, 4, 7, 11, 15, 18, 22, 28]
[0, 1, 2, 4, 7, 11, 18, 24, 27, 28]
[0, 1, 2, 4, 7, 13, 16, 24, 27, 28]
[0, 1, 2, 4, 7, 14, 16, 17, 19, 25]
[0, 1, 2, 4, 7, 14, 19, 21, 22, 25] (d)
[0, 1, 2, 4, 8, 12, 15, 18, 21, 26]
[0, 1, 2, 4, 8, 13, 20, 23, 24, 25] (d)
[0, 1, 2, 4, 8, 14, 15, 16, 25, 28]
[0, 1, 2, 4, 9, 10, 11, 12, 20, 23]
[0, 1, 2, 4, 9, 10, 12, 16, 20, 28]
[0, 1, 2, 4, 9, 11, 12, 16, 20, 23]
[0, 1, 2, 4, 9, 11, 12, 20, 26, 27] (d)
[0, 1, 2, 4, 9, 11, 14, 19, 22, 25]
[0, 1, 2, 4, 9, 11, 15, 16, 22, 25]
[0, 1, 2, 4, 9, 14, 17, 19, 22, 28]
[0, 1, 2, 4, 9, 16, 17, 23, 24, 27]
[0, 1, 2, 4, 10, 11, 18, 20, 21, 25]
[0, 1, 2, 4, 10, 12, 15, 21, 26, 27] (d)
[0, 1, 2, 4, 10, 13, 24, 25, 27, 28]
[0, 1, 2, 4, 10, 16, 19, 20, 27, 28]
[0, 1, 2, 4, 10, 18, 20, 21, 23, 28]
[0, 1, 2, 4, 11, 14, 16, 17, 19, 26]
[0, 1, 2, 4, 11, 19, 20, 24, 25, 27] (d)
[0, 1, 2, 4, 12, 14, 19, 21, 26, 27]
[0, 1, 2, 4, 12, 14, 20, 24, 27, 28] (d)
[0, 1, 2, 4, 19, 20, 24, 25, 27, 28]
[0, 1, 2, 5, 6, 8, 10, 14, 15, 19]
[0, 1, 2, 5, 6, 8, 12, 23, 24, 28]
[0, 1, 2, 5, 6, 10, 12, 17, 21, 24] (d)
[0, 1, 2, 5, 6, 10, 13, 16, 21, 26]
[0, 1, 2, 5, 6, 10, 13, 19, 20, 26] (d)
[0, 1, 2, 5, 6, 10, 15, 18, 20, 26]
[0, 1, 2, 5, 6, 10, 15, 19, 20, 26]
[0, 1, 2, 5, 6, 11, 18, 25, 26, 28]
[0, 1, 2, 5, 6, 12, 15, 17, 24, 25]
[0, 1, 2, 5, 6, 12, 17, 23, 24, 25]
[0, 1, 2, 5, 6, 13, 15, 22, 25, 28] (d)
[0, 1, 2, 5, 6, 15, 17, 23, 24, 28]
[0, 1, 2, 5, 6, 16, 17, 21, 22, 26]
[0, 1, 2, 5, 6, 19, 20, 25, 26, 28]
[0, 1, 2, 5, 8, 10, 11, 12, 18, 21]
[0, 1, 2, 5, 8, 10, 14, 15, 24, 28]
[0, 1, 2, 5, 8, 13, 15, 16, 23, 24]
[0, 1, 2, 5, 8, 15, 17, 24, 25, 28] (d)
[0, 1, 2, 5, 9, 10, 14, 15, 25, 26]
[0, 1, 2, 5, 9, 10, 15, 20, 25, 27]
[0, 1, 2, 5, 9, 14, 17, 19, 27, 28] (d)
[0, 1, 2, 5, 9, 15, 17, 25, 27, 28] (d)
[0, 1, 2, 5, 10, 13, 16, 19, 23, 27]
[0, 1, 2, 5, 10, 14, 15, 17, 19, 20]
[0, 1, 2, 5, 10, 15, 18, 21, 25, 26]
[0, 1, 2, 5, 11, 12, 16, 21, 23, 25]
[0, 1, 2, 5, 11, 12, 16, 21, 25, 26]
[0, 1, 2, 5, 11, 12, 18, 21, 25, 26] (d)
[0, 1, 2, 5, 11, 13, 16, 21, 25, 26]
[0, 1, 2, 5, 11, 18, 22, 25, 27, 28]
[0, 1, 2, 5, 12, 14, 15, 17, 20, 27]
[0, 1, 2, 5, 12, 14, 15, 21, 27, 28]
[0, 1, 2, 5, 12, 17, 21, 23, 24, 25] (d)
[0, 1, 2, 5, 13, 16, 22, 25, 27, 28]
[0, 1, 2, 5, 14, 15, 16, 22, 26, 28]
[0, 1, 2, 5, 14, 15, 17, 19, 24, 28]
[0, 1, 2, 5, 14, 15, 17, 19, 27, 28]
[0, 1, 2, 5, 15, 17, 19, 23, 27, 28]
[0, 1, 2, 6, 7, 8, 10, 12, 14, 18]
[0, 1, 2, 6, 7, 8, 10, 14, 19, 26] (d)
[0, 1, 2, 6, 7, 8, 11, 12, 18, 23]
[0, 1, 2, 6, 7, 8, 11, 18, 23, 27] (d)
[0, 1, 2, 6, 7, 8, 13, 15, 16, 23]
[0, 1, 2, 6, 7, 8, 14, 19, 25, 26]
[0, 1, 2, 6, 7, 8, 14, 21, 22, 24]
[0, 1, 2, 6, 7, 8, 19, 23, 25, 27]
[0, 1, 2, 6, 7, 9, 10, 11, 12, 20]
[0, 1, 2, 6, 7, 9, 18, 23, 25, 27]
[0, 1, 2, 6, 7, 10, 12, 14, 15, 28] (d)
[0, 1, 2, 6, 7, 11, 13, 15, 16, 23] (d)
[0, 1, 2, 6, 7, 12, 18, 21, 22, 24]
[0, 1, 2, 6, 7, 13, 15, 24, 25, 28]
[0, 1, 2, 6, 7, 14, 16, 19, 25, 26]
[0, 1, 2, 6, 7, 18, 22, 24, 25, 28]
[0, 1, 2, 6, 8, 10, 12, 14, 19, 21]
[0, 1, 2, 6, 8, 10, 12, 15, 18, 20]
[0, 1, 2, 6, 8, 10, 14, 17, 24, 28] (d)
[0, 1, 2, 6, 8, 10, 15, 19, 20, 26]
[0, 1, 2, 6, 9, 10, 12, 17, 24, 27] (d)
[0, 1, 2, 6, 9, 12, 17, 20, 22, 27]
[0, 1, 2, 6, 9, 15, 16, 20, 22, 27]
[0, 1, 2, 6, 9, 16, 18, 22, 25, 27]
[0, 1, 2, 6, 10, 11, 13, 20, 21, 27]
[0, 1, 2, 6, 10, 12, 14, 24, 27, 28]
[0, 1, 2, 6, 10, 13, 15, 19, 20, 28] (d)
[0, 1, 2, 6, 11, 13, 15, 16, 25, 28]
[0, 1, 2, 6, 11, 16, 18, 20, 23, 28]
[0, 1, 2, 6, 12, 14, 15, 17, 24, 27]
[0, 1, 2, 6, 12, 17, 23, 24, 25, 27]
[0, 1, 2, 6, 13, 16, 19, 20, 27, 28]
[0, 1, 2, 6, 13, 16, 20, 22, 24, 28] (d)
[0, 1, 2, 6, 14, 19, 25, 26, 27, 28]
[0, 1, 2, 6, 15, 16, 20, 22, 25, 28]
[0, 1, 2, 7, 8, 11, 12, 14, 17, 20] (d)
[0, 1, 2, 7, 8, 11, 16, 18, 23, 24]
[0, 1, 2, 7, 8, 12, 14, 17, 22, 24]
[0, 1, 2, 7, 8, 12, 16, 17, 20, 24]
[0, 1, 2, 7, 8, 13, 15, 20, 23, 24]
[0, 1, 2, 7, 8, 14, 19, 21, 22, 24]
[0, 1, 2, 7, 8, 15, 16, 18, 23, 26]
[0, 1, 2, 7, 8, 15, 18, 23, 24, 27]
[0, 1, 2, 7, 9, 10, 11, 17, 20, 28]
[0, 1, 2, 7, 9, 10, 12, 17, 23, 24]
[0, 1, 2, 7, 9, 10, 12, 20, 26, 28]
[0, 1, 2, 7, 9, 10, 13, 19, 24, 25]
[0, 1, 2, 7, 9, 10, 17, 23, 24, 25]
[0, 1, 2, 7, 9, 10, 23, 24, 25, 27]
[0, 1, 2, 7, 9, 11, 13, 17, 19, 28]
[0, 1, 2, 7, 9, 11, 14, 17, 20, 28] (d)
[0, 1, 2, 7, 9, 14, 17, 19, 23, 24]
[0, 1, 2, 7, 10, 12, 14, 19, 24, 28]
[0, 1, 2, 7, 10, 12, 19, 21, 26, 27]
[0, 1, 2, 7, 10, 14, 19, 21, 25, 26] (d)
[0, 1, 2, 7, 11, 14, 15, 19, 23, 24]
[0, 1, 2, 7, 11, 15, 18, 24, 25, 27] (d)
[0, 1, 2, 7, 11, 15, 19, 20, 24, 27]
[0, 1, 2, 8, 10, 11, 18, 21, 24, 27]
[0, 1, 2, 8, 11, 13, 16, 21, 26, 28]
[0, 1, 2, 8, 11, 15, 19, 20, 22, 27]
[0, 1, 2, 8, 11, 19, 20, 21, 22, 27]
[0, 1, 2, 8, 11, 19, 20, 21, 24, 27]
[0, 1, 2, 8, 12, 14, 15, 16, 17, 20]
[0, 1, 2, 8, 12, 14, 15, 18, 21, 28]
[0, 1, 2, 8, 12, 15, 19, 23, 26, 28]
[0, 1, 2, 8, 13, 19, 20, 23, 24, 25]
[0, 1, 2, 8, 13, 19, 23, 24, 25, 27]
[0, 1, 2, 8, 13, 21, 25, 26, 27, 28]
[0, 1, 2, 8, 14, 15, 17, 24, 27, 28]
[0, 1, 2, 8, 15, 16, 18, 20, 24, 25] (d)
[0, 1, 2, 8, 15, 16, 18, 23, 24, 25]
[0, 1, 2, 9, 10, 13, 16, 23, 27, 28]
[0, 1, 2, 9, 10, 13, 17, 24, 25, 27] (d)
[0, 1, 2, 9, 10, 13, 19, 25, 27, 28]
[0, 1, 2, 9, 11, 13, 16, 17, 20, 22]
[0, 1, 2, 9, 11, 14, 15, 18, 20, 22]
[0, 1, 2, 9, 12, 14, 15, 18, 20, 28]
[0, 1, 2, 9, 12, 15, 16, 18, 22, 28]
[0, 1, 2, 10, 11, 15, 17, 20, 24, 28] (d)
[0, 1, 2, 10, 12, 14, 15, 24, 27, 28]
[0, 1, 2, 10, 12, 15, 16, 18, 21, 28]
[0, 1, 2, 10, 12, 15, 20, 24, 27, 28] (d)
[0, 1, 2, 10, 12, 17, 19, 21, 23, 25]
[0, 1, 2, 10, 13, 16, 19, 21, 23, 28] (d)
[0, 1, 2, 10, 13, 19, 20, 21, 23, 26]
[0, 1, 2, 10, 13, 19, 20, 21, 23, 28]
[0, 1, 2, 10, 14, 18, 20, 21, 26, 28]
[0, 1, 2, 10, 19, 20, 21, 25, 26, 28]
[0, 1, 2, 10, 19, 20, 24, 25, 27, 28]
[0, 1, 2, 11, 12, 14, 16, 17, 21, 26]
[0, 1, 2, 11, 13, 16, 19, 21, 23, 25]
[0, 1, 2, 11, 13, 17, 19, 21, 23, 28]
[0, 1, 2, 11, 14, 15, 16, 17, 19, 23]
[0, 1, 2, 11, 14, 17, 19, 20, 23, 24] (d)
[0, 1, 2, 11, 14, 20, 21, 24, 25, 27]
[0, 1, 2, 11, 19, 20, 21, 22, 24, 25]
[0, 1, 2, 12, 16, 17, 21, 23, 25, 26]
[0, 1, 2, 13, 17, 19, 21, 23, 24, 25]
[0, 1, 2, 15, 16, 18, 20, 23, 24, 28] (d)
[0, 1, 2, 15, 16, 18, 23, 24, 25, 27]
[0, 1, 3, 4, 5, 6, 7, 9, 15, 18]
[0, 1, 3, 4, 5, 6, 7, 9, 24, 25]
[0, 1, 3, 4, 5, 6, 7, 15, 24, 25]
[0, 1, 3, 4, 5, 6, 9, 10, 15, 22]
[0, 1, 3, 4, 5, 6, 9, 10, 23, 24]
[0, 1, 3, 4, 5, 6, 14, 23, 24, 25]
[0, 1, 3, 4, 5, 7, 9, 13, 16, 24] (d)
[0, 1, 3, 4, 5, 7, 9, 17, 24, 25]
[0, 1, 3, 4, 5, 7, 12, 14, 15, 23] (d)
[0, 1, 3, 4, 5, 7, 13, 15, 18, 24] (d)
[0, 1, 3, 4, 5, 7, 15, 17, 22, 24]
[0, 1, 3, 4, 5, 10, 13, 15, 22, 24]
[0, 1, 3, 4, 6, 9, 13, 14, 22, 26]
[0, 1, 3, 4, 6, 9, 15, 18, 20, 26]
[0, 1, 3, 4, 6, 12, 14, 15, 17, 26]
[0, 1, 3, 4, 7, 11, 12, 15, 18, 25]
[0, 1, 3, 4, 7, 11, 19, 20, 24, 27]
[0, 1, 3, 4, 7, 13, 15, 18, 24, 27]
[0, 1, 3, 4, 7, 16, 18, 19, 21, 27]
[0, 1, 3, 4, 8, 9, 10, 19, 27, 28]
[0, 1, 3, 4, 8, 9, 13, 16, 23, 24]
[0, 1, 3, 4, 8, 9, 16, 24, 26, 28]
[0, 1, 3, 4, 8, 9, 18, 26, 27, 28]
[0, 1, 3, 4, 8, 9, 24, 26, 27, 28]
[0, 1, 3, 4, 8, 15, 18, 21, 22, 26]
[0, 1, 3, 4, 9, 10, 17, 20, 24, 25]
[0, 1, 3, 4, 9, 10, 23, 24, 27, 28]
[0, 1, 3, 4, 9, 11, 16, 18, 26, 28]
[0, 1, 3, 4, 9, 11, 18, 20, 23, 28]
[0, 1, 3, 4, 9, 15, 18, 20, 26, 28] (d)
[0, 1, 3, 4, 9, 17, 20, 24, 26, 28] (d)
[0, 1, 3, 4, 10, 18, 19, 21, 26, 28] (d)
[0, 1, 3, 4, 11, 18, 23, 24, 27, 28]
[0, 1, 3, 4, 15, 18, 24, 26, 27, 28]
[0, 1, 3, 5, 6, 7, 9, 16, 24, 25] (d)
[0, 1, 3, 5, 6, 7, 11, 17, 22, 28]
[0, 1, 3, 5, 6, 7, 12, 14, 15, 28]
[0, 1, 3, 5, 6, 7, 12, 16, 20, 23] (d)
[0, 1, 3, 5, 6, 7, 13, 18, 24, 28]
[0, 1, 3, 5, 6, 7, 14, 15, 18, 22] (d)
[0, 1, 3, 5, 6, 7, 16, 19, 25, 26]
[0, 1, 3, 5, 6, 7, 20, 21, 23, 28]
[0, 1, 3, 5, 6, 9, 10, 16, 19, 28]
[0, 1, 3, 5, 6, 10, 11, 19, 26, 28] (d)
[0, 1, 3, 5, 6, 10, 12, 18, 20, 23] (d)
[0, 1, 3, 5, 6, 10, 15, 18, 19, 20]
[0, 1, 3, 5, 6, 12, 15, 17, 23, 25] (d)
[0, 1, 3, 5, 6, 12, 15, 19, 23, 28] (d)
[0, 1, 3, 5, 6, 13, 17, 20, 21, 28] (d)
[0, 1, 3, 5, 6, 15, 16, 17, 20, 25]
[0, 1, 3, 5, 7, 8, 12, 16, 20, 25]
[0, 1, 3, 5, 7, 8, 12, 17, 21, 25]
[0, 1, 3, 5, 7, 11, 22, 23, 24, 28]
[0, 1, 3, 5, 7, 12, 14, 16, 20, 23]
[0, 1, 3, 5, 7, 12, 21, 23, 24, 28]
[0, 1, 3, 5, 7, 16, 19, 24, 26, 28]
[0, 1, 3, 5, 8, 9, 13, 14, 15, 16] (d)
[0, 1, 3, 5, 8, 12, 14, 21, 24, 28]
[0, 1, 3, 5, 8, 13, 15, 17, 21, 25]
[0, 1, 3, 5, 9, 10, 13, 15, 17, 22]
[0, 1, 3, 5, 9, 10, 14, 15, 16, 22] (d)
[0, 1, 3, 5, 9, 10, 14, 24, 25, 26]
[0, 1, 3, 5, 9, 10, 16, 19, 22, 23]
[0, 1, 3, 5, 9, 12, 20, 25, 26, 28] (d)
[0, 1, 3, 5, 9, 13, 14, 16, 24, 26]
[0, 1, 3, 5, 9, 13, 18, 22, 23, 26]
[0, 1, 3, 5, 10, 13, 14, 17, 21, 25]
[0, 1, 3, 5, 10, 13, 15, 17, 21, 24] (d)
[0, 1, 3, 5, 10, 13, 15, 17, 22, 24]
[0, 1, 3, 5, 10, 13, 22, 24, 26, 28]
[0, 1, 3, 5, 10, 14, 15, 16, 17, 20]
[0, 1, 3, 5, 10, 14, 15, 21, 22, 24] (d)
[0, 1, 3, 5, 10, 15, 20, 21, 25, 28]
[0, 1, 3, 5, 12, 14, 20, 22, 23, 26]
[0, 1, 3, 5, 13, 14, 15, 16, 17, 20]
[0, 1, 3, 5, 13, 20, 21, 25, 26, 28]
[0, 1, 3, 6, 7, 11, 14, 21, 22, 27]
[0, 1, 3, 6, 7, 12, 15, 22, 23, 28]
[0, 1, 3, 6, 7, 13, 14, 16, 23, 26]
[0, 1, 3, 6, 7, 13, 14, 18, 23, 26]
[0, 1, 3, 6, 7, 13, 14, 21, 26, 28]
[0, 1, 3, 6, 7, 13, 16, 18, 21, 26] (d)
[0, 1, 3, 6, 7, 13, 18, 21, 24, 25]
[0, 1, 3, 6, 7, 14, 18, 22, 23, 27] (d)
[0, 1, 3, 6, 9, 10, 11, 19, 22, 28]
[0, 1, 3, 6, 9, 11, 12, 15, 18, 25]
[0, 1, 3, 6, 9, 11, 12, 16, 23, 26]
[0, 1, 3, 6, 9, 12, 19, 20, 22, 28]
[0, 1, 3, 6, 9, 18, 19, 20, 25, 26] (d)
[0, 1, 3, 6, 10, 11, 15, 19, 23, 28]
[0, 1, 3, 6, 10, 11, 19, 23, 26, 27]
[0, 1, 3, 6, 10, 12, 14, 17, 23, 26]
[0, 1, 3, 6, 10, 14, 17, 21, 27, 28]
[0, 1, 3, 6, 10, 14, 17, 22, 23, 27] (d)
[0, 1, 3, 6, 10, 17, 23, 26, 27, 28]
[0, 1, 3, 6, 11, 14, 17, 21, 22, 27]
[0, 1, 3, 6, 11, 14, 17, 21, 23, 27]
[0, 1, 3, 6, 12, 15, 17, 22, 23, 27]
[0, 1, 3, 6, 12, 15, 17, 23, 26, 27]
[0, 1, 3, 6, 12, 15, 23, 26, 27, 28]
[0, 1, 3, 6, 13, 14, 15, 16, 24, 26]
[0, 1, 3, 6, 13, 14, 18, 22, 24, 26] (d)
[0, 1, 3, 6, 13, 15, 16, 17, 20, 27]
[0, 1, 3, 6, 13, 15, 16, 18, 24, 28]
[0, 1, 3, 6, 13, 18, 20, 21, 24, 28] (d)
[0, 1, 3, 7, 8, 12, 16, 23, 24, 27] (d)
[0, 1, 3, 7, 8, 13, 15, 16, 18, 26] (d)
[0, 1, 3, 7, 8, 13, 15, 18, 24, 27]
[0, 1, 3, 7, 8, 13, 16, 20, 24, 27] (d)
[0, 1, 3, 7, 9, 11, 13, 18, 20, 22]
[0, 1, 3, 7, 9, 13, 16, 19, 24, 27]
[0, 1, 3, 7, 11, 12, 16, 18, 24, 25]
[0, 1, 3, 7, 11, 14, 17, 20, 25, 28]
[0, 1, 3, 7, 11, 19, 20, 21, 22, 24]
[0, 1, 3, 7, 12, 19, 22, 23, 24, 28] (d)
[0, 1, 3, 7, 13, 14, 15, 16, 23, 26]
[0, 1, 3, 7, 13, 14, 15, 24, 27, 28]
[0, 1, 3, 7, 18, 19, 23, 24, 25, 26]
[0, 1, 3, 8, 9, 10, 11, 13, 19, 27]
[0, 1, 3, 8, 9, 10, 11, 19, 22, 28]
[0, 1, 3, 8, 9, 10, 12, 14, 15, 16]
[0, 1, 3, 8, 9, 10, 14, 15, 16, 22]
[0, 1, 3, 8, 9, 10, 14, 15, 20, 26]
[0, 1, 3, 8, 9, 10, 15, 16, 22, 27]
[0, 1, 3, 8, 9, 11, 13, 18, 22, 23] (d)
[0, 1, 3, 8, 9, 11, 15, 19, 27, 28]
[0, 1, 3, 8, 9, 12, 15, 16, 18, 27]
[0, 1, 3, 8, 9, 13, 15, 16, 19, 27] (d)
[0, 1, 3, 8, 9, 13, 16, 19, 24, 27]
[0, 1, 3, 8, 9, 16, 19, 23, 24, 27]
[0, 1, 3, 8, 10, 11, 12, 14, 15, 21] (d)
[0, 1, 3, 8, 10, 11, 12, 18, 21, 25]
[0, 1, 3, 8, 10, 11, 13, 18, 25, 26]
[0, 1, 3, 8, 10, 11, 14, 15, 22, 27]
[0, 1, 3, 8, 10, 11, 15, 19, 22, 28]
[0, 1, 3, 8, 10, 11, 19, 25, 26, 28] (d)
[0, 1, 3, 8, 10, 13, 16, 19, 25, 26]
[0, 1, 3, 8, 10, 13, 18, 21, 24, 28]
[0, 1, 3, 8, 10, 14, 15, 21, 24, 28]
[0, 1, 3, 8, 11, 12, 16, 18, 21, 24]
[0, 1, 3, 8, 11, 13, 15, 17, 23, 25]
[0, 1, 3, 8, 11, 14, 15, 16, 21, 22]
[0, 1, 3, 8, 11, 16, 18, 21, 22, 26]
[0, 1, 3, 8, 13, 16, 18, 21, 27, 28]
[0, 1, 3, 8, 14, 15, 20, 21, 22, 27]
[0, 1, 3, 8, 15, 16, 19, 20, 22, 27]
[0, 1, 3, 8, 15, 16, 22, 23, 26, 28]
[0, 1, 3, 8, 15, 18, 20, 21, 22, 26] (d)
[0, 1, 3, 9, 10, 11, 13, 16, 19, 22]
[0, 1, 3, 9, 10, 13, 14, 16, 22, 23]
[0, 1, 3, 9, 10, 16, 17, 19, 25, 26]
[0, 1, 3, 9, 10, 17, 19, 20, 24, 28]
[0, 1, 3, 9, 11, 12, 14, 15, 18, 27]
[0, 1, 3, 9, 11, 12, 14, 23, 26, 27]
[0, 1, 3, 9, 11, 14, 20, 25, 26, 28] (d)
[0, 1, 3, 9, 11, 18, 20, 22, 23, 26]
[0, 1, 3, 9, 12, 23, 24, 26, 27, 28]
[0, 1, 3, 9, 13, 14, 15, 17, 20, 27]
[0, 1, 3, 9, 15, 18, 19, 26, 27, 28]
[0, 1, 3, 9, 17, 19, 20, 22, 27, 28]
[0, 1, 3, 10, 11, 17, 19, 20, 21, 25]
[0, 1, 3, 10, 13, 14, 15, 16, 17, 23]
[0, 1, 3, 10, 13, 14, 15, 17, 24, 27]
[0, 1, 3, 10, 13, 15, 16, 17, 21, 27]
[0, 1, 3, 10, 13, 15, 16, 18, 25, 28]
[0, 1, 3, 10, 13, 16, 17, 19, 22, 23]
[0, 1, 3, 10, 18, 19, 23, 24, 26, 28] (d)
[0, 1, 3, 11, 13, 14, 17, 21, 23, 25] (d)
[0, 1, 3, 11, 13, 14, 18, 20, 22, 26] (d)
[0, 1, 3, 11, 13, 16, 17, 19, 21, 25]
[0, 1, 3, 11, 13, 17, 19, 21, 23, 25]
[0, 1, 3, 11, 13, 18, 20, 25, 26, 28]
[0, 1, 3, 11, 13, 19, 23, 26, 27, 28] (d)
[0, 1, 3, 11, 14, 15, 17, 21, 22, 27] (d)
[0, 1, 3, 11, 17, 19, 20, 21, 22, 27]
[0, 1, 3, 12, 14, 15, 17, 22, 23, 26]
[0, 1, 3, 12, 14, 15, 18, 21, 22, 27]
[0, 1, 3, 12, 15, 16, 18, 19, 21, 27]
[0, 1, 3, 12, 17, 19, 21, 23, 24, 25]
[0, 1, 3, 18, 19, 23, 24, 26, 27, 28]
[0, 1, 4, 5, 6, 7, 9, 10, 15, 16]
[0, 1, 4, 5, 6, 7, 9, 10, 17, 24]
[0, 1, 4, 5, 6, 7, 10, 13, 20, 22] (d)
[0, 1, 4, 5, 6, 7, 11, 12, 18, 20]
[0, 1, 4, 5, 6, 7, 11, 12, 23, 27]
[0, 1, 4, 5, 6, 9, 13, 14, 18, 19]
[0, 1, 4, 5, 6, 9, 14, 19, 22, 25]
[0, 1, 4, 5, 6, 9, 15, 16, 20, 25]
[0, 1, 4, 5, 6, 9, 15, 16, 22, 25] (d)
[0, 1, 4, 5, 6, 9, 15, 17, 20, 25]
[0, 1, 4, 5, 6, 10, 11, 12, 18, 23]
[0, 1, 4, 5, 6, 10, 11, 18, 20, 23]
[0, 1, 4, 5, 6, 11, 14, 18, 23, 25] (d)
[0, 1, 4, 5, 6, 16, 20, 21, 25, 27]
[0, 1, 4, 5, 7, 9, 10, 11, 20, 23]
[0, 1, 4, 5, 7, 9, 13, 14, 18, 28]
[0, 1, 4, 5, 7, 10, 13, 22, 23, 24] (d)
[0, 1, 4, 5, 7, 11, 22, 23, 27, 28]
[0, 1, 4, 5, 7, 12, 14, 15, 17, 22]
[0, 1, 4, 5, 7, 12, 14, 17, 20, 23]
[0, 1, 4, 5, 7, 13, 14, 20, 21, 23]
[0, 1, 4, 5, 9, 11, 16, 20, 23, 28] (d)
[0, 1, 4, 5, 9, 12, 15, 20, 25, 28]
[0, 1, 4, 5, 9, 12, 18, 19, 25, 28] (d)
[0, 1, 4, 5, 9, 14, 17, 19, 25, 28]
[0, 1, 4, 5, 9, 14, 18, 19, 25, 28]
[0, 1, 4, 5, 10, 11, 12, 21, 24, 27] (d)
[0, 1, 4, 5, 10, 17, 24, 25, 27, 28]
[0, 1, 4, 5, 11, 13, 14, 20, 21, 27]
[0, 1, 4, 5, 11, 14, 16, 23, 24, 28]
[0, 1, 4, 5, 11, 14, 17, 20, 22, 27]
[0, 1, 4, 5, 11, 14, 23, 24, 25, 27]
[0, 1, 4, 5, 11, 16, 22, 23, 24, 28]
[0, 1, 4, 5, 12, 14, 21, 24, 27, 28] (d)
[0, 1, 4, 5, 12, 17, 19, 20, 22, 27]
[0, 1, 4, 5, 14, 16, 22, 23, 27, 28]
[0, 1, 4, 5, 15, 16, 20, 21, 25, 28]
[0, 1, 4, 5, 18, 19, 24, 25, 27, 28]
[0, 1, 4, 6, 7, 8, 10, 15, 22, 23]
[0, 1, 4, 6, 7, 8, 13, 14, 21, 24]
[0, 1, 4, 6, 7, 9, 13, 14, 18, 22] (d)
[0, 1, 4, 6, 7, 9, 14, 15, 22, 25]
[0, 1, 4, 6, 7, 10, 13, 18, 22, 23]
[0, 1, 4, 6, 7, 10, 13, 20, 22, 23]
[0, 1, 4, 6, 7, 10, 15, 18, 20, 23] (d)
[0, 1, 4, 6, 7, 11, 12, 15, 18, 23]
[0, 1, 4, 6, 8, 9, 22, 23, 24, 25] (d)
[0, 1, 4, 6, 8, 10, 12, 15, 18, 23]
[0, 1, 4, 6, 8, 10, 17, 20, 24, 26]
[0, 1, 4, 6, 8, 12, 16, 17, 24, 27] (d)
[0, 1, 4, 6, 8, 13, 20, 21, 23, 25]
[0, 1, 4, 6, 8, 15, 16, 17, 24, 26]
[0, 1, 4, 6, 9, 13, 14, 18, 22, 26]
[0, 1, 4, 6, 10, 13, 20, 22, 24, 26]
[0, 1, 4, 6, 11, 14, 16, 18, 22, 26]
[0, 1, 4, 6, 11, 14, 19, 21, 22, 25]
[0, 1, 4, 6, 13, 14, 15, 22, 24, 26]
[0, 1, 4, 6, 14, 15, 16, 17, 24, 27]
[0, 1, 4, 6, 14, 16, 17, 21, 25, 27]
[0, 1, 4, 7, 8, 10, 12, 16, 20, 25]
[0, 1, 4, 7, 8, 10, 12, 19, 21, 27]
[0, 1, 4, 7, 8, 10, 16, 18, 25, 27]
[0, 1, 4, 7, 8, 10, 19, 21, 22, 24]
[0, 1, 4, 7, 8, 12, 17, 21, 25, 27]
[0, 1, 4, 7, 8, 13, 15, 16, 18, 27]
[0, 1, 4, 7, 9, 10, 11, 17, 20, 28]
[0, 1, 4, 7, 9, 13, 14, 23, 27, 28]
[0, 1, 4, 7, 10, 12, 18, 21, 22, 25]
[0, 1, 4, 7, 11, 12, 15, 18, 24, 25]
[0, 1, 4, 7, 12, 14, 15, 22, 23, 28]
[0, 1, 4, 7, 12, 16, 17, 23, 24, 27]
[0, 1, 4, 7, 12, 18, 19, 22, 24, 25]
[0, 1, 4, 7, 13, 14, 18, 19, 22, 25]
[0, 1, 4, 7, 13, 14, 18, 20, 22, 23]
[0, 1, 4, 7, 13, 16, 18, 20, 24, 27]
[0, 1, 4, 7, 14, 15, 16, 17, 23, 27]
[0, 1, 4, 7, 14, 16, 17, 23, 24, 27]
[0, 1, 4, 7, 14, 16, 23, 24, 27, 28] (d)
[0, 1, 4, 7, 14, 18, 19, 20, 21, 22]
[0, 1, 4, 7, 14, 18, 19, 21, 22, 25]
[0, 1, 4, 7, 14, 18, 19, 21, 24, 27]
[0, 1, 4, 8, 9, 10, 12, 15, 22, 27] (d)
[0, 1, 4, 8, 9, 12, 14, 19, 22, 27]
[0, 1, 4, 8, 9, 12, 15, 18, 20, 26]
[0, 1, 4, 8, 9, 12, 15, 22, 26, 27]
[0, 1, 4, 8, 9, 13, 14, 24, 25, 28]
[0, 1, 4, 8, 9, 13, 15, 18, 22, 26]
[0, 1, 4, 8, 9, 14, 19, 24, 26, 28]
[0, 1, 4, 8, 10, 12, 16, 17, 19, 27] (d)
[0, 1, 4, 8, 12, 14, 16, 19, 24, 26]
[0, 1, 4, 8, 12, 15, 17, 21, 22, 26]
[0, 1, 4, 8, 12, 16, 17, 19, 21, 26]
[0, 1, 4, 8, 12, 16, 17, 21, 24, 26]
[0, 1, 4, 8, 13, 14, 15, 20, 21, 25]
[0, 1, 4, 8, 13, 16, 18, 26, 27, 28] (d)
[0, 1, 4, 8, 14, 16, 24, 26, 27, 28] (d)
[0, 1, 4, 8, 15, 16, 18, 20, 21, 22] (d)
[0, 1, 4, 8, 16, 17, 21, 24, 26, 27]
[0, 1, 4, 9, 11, 12, 17, 20, 23, 25]
[0, 1, 4, 9, 11, 13, 14, 18, 22, 26]
[0, 1, 4, 9, 11, 16, 17, 22, 23, 24]
[0, 1, 4, 9, 12, 14, 17, 23, 24, 27] (d)
[0, 1, 4, 9, 12, 15, 18, 22, 26, 28]
[0, 1, 4, 9, 13, 14, 16, 18, 19, 28]
[0, 1, 4, 9, 14, 17, 20, 24, 25, 28]
[0, 1, 4, 10, 11, 15, 20, 22, 24, 28]
[0, 1, 4, 10, 11, 15, 20, 24, 25, 28]
[0, 1, 4, 10, 11, 17, 20, 24, 25, 28] (d)
[0, 1, 4, 10, 12, 15, 18, 21, 22, 26]
[0, 1, 4, 10, 12, 15, 20, 24, 25, 28]
[0, 1, 4, 10, 12, 15, 21, 24, 26, 27]
[0, 1, 4, 10, 15, 16, 20, 21, 22, 27]
[0, 1, 4, 10, 16, 18, 19, 20, 21, 22]
[0, 1, 4, 10, 17, 21, 24, 26, 27, 28]
[0, 1, 4, 11, 13, 14, 16, 19, 26, 28]
[0, 1, 4, 11, 13, 14, 20, 26, 27, 28]
[0, 1, 4, 11, 16, 20, 22, 23, 24, 28] (d)
[0, 1, 4, 12, 14, 15, 17, 22, 23, 27] (d)
[0, 1, 4, 12, 15, 21, 24, 26, 27, 28]
[0, 1, 4, 13, 14, 15, 21, 25, 27, 28]
[0, 1, 4, 13, 14, 16, 18, 23, 27, 28]
[0, 1, 4, 13, 14, 16, 18, 26, 27, 28]
[0, 1, 4, 13, 15, 16, 18, 24, 26, 27]
[0, 1, 4, 14, 16, 18, 22, 26, 27, 28]
[0, 1, 5, 6, 7, 8, 11, 12, 14, 18]
[0, 1, 5, 6, 7, 8, 11, 12, 21, 23]
[0, 1, 5, 6, 7, 8, 21, 22, 24, 26] (d)
[0, 1, 5, 6, 7, 9, 11, 13, 17, 28]
[0, 1, 5, 6, 7, 9, 11, 13, 18, 27]
[0, 1, 5, 6, 7, 9, 13, 18, 25, 28] (d)
[0, 1, 5, 6, 7, 10, 11, 17, 20, 22]
[0, 1, 5, 6, 7, 10, 11, 17, 22, 28]
[0, 1, 5, 6, 7, 10, 17, 22, 26, 28] (d)
[0, 1, 5, 6, 7, 12, 14, 15, 18, 24]
[0, 1, 5, 6, 7, 12, 14, 15, 22, 28]
[0, 1, 5, 6, 7, 13, 18, 24, 25, 28]
[0, 1, 5, 6, 7, 13, 20, 21, 23, 25] (d)
[0, 1, 5, 6, 7, 13, 20, 21, 23, 28]
[0, 1, 5, 6, 7, 16, 24, 25, 26, 27]
[0, 1, 5, 6, 7, 18, 22, 24, 26, 28]
[0, 1, 5, 6, 8, 9, 10, 11, 12, 14]
[0, 1, 5, 6, 8, 9, 10, 11, 12, 20]
[0, 1, 5, 6, 8, 9, 10, 11, 19, 28]
[0, 1, 5, 6, 8, 9, 10, 12, 14, 22]
[0, 1, 5, 6, 8, 9, 14, 15, 22, 25]
[0, 1, 5, 6, 8, 10, 11, 12, 14, 21] (d)
[0, 1, 5, 6, 8, 11, 12, 18, 23, 26]
[0, 1, 5, 6, 8, 12, 16, 17, 21, 23]
[0, 1, 5, 6, 8, 17, 22, 24, 26, 28]
[0, 1, 5, 6, 9, 11, 13, 14, 27, 28] (d)
[0, 1, 5, 6, 9, 12, 16, 17, 20, 23]
[0, 1, 5, 6, 9, 12, 17, 23, 24, 27]
[0, 1, 5, 6, 10, 12, 14, 15, 22, 28] (d)
[0, 1, 5, 6, 10, 13, 14, 15, 18, 19]
[0, 1, 5, 6, 10, 13, 20, 21, 26, 27]
[0, 1, 5, 6, 11, 17, 20, 21, 23, 28]
[0, 1, 5, 6, 12, 14, 18, 19, 23, 27]
[0, 1, 5, 6, 12, 14, 23, 24, 27, 28]
[0, 1, 5, 6, 12, 15, 18, 19, 23, 26]
[0, 1, 5, 6, 13, 15, 18, 24, 25, 28]
[0, 1, 5, 6, 13, 21, 23, 25, 26, 27]
[0, 1, 5, 6, 14, 21, 23, 24, 25, 27] (d)
[0, 1, 5, 6, 15, 23, 24, 25, 26, 27]
[0, 1, 5, 6, 16, 17, 20, 21, 22, 25]
[0, 1, 5, 6, 17, 21, 23, 24, 27, 28]
[0, 1, 5, 6, 21, 23, 24, 25, 26, 27]
[0, 1, 5, 7, 8, 10, 13, 14, 21, 25] (d)
[0, 1, 5, 7, 8, 10, 13, 17, 21, 24] (d)
[0, 1, 5, 7, 8, 10, 13, 19, 22, 24]
[0, 1, 5, 7, 8, 11, 19, 21, 22, 24] (d)
[0, 1, 5, 7, 9, 10, 13, 14, 15, 25]
[0, 1, 5, 7, 9, 10, 16, 17, 20, 23]
[0, 1, 5, 7, 9, 10, 17, 22, 24, 26]
[0, 1, 5, 7, 9, 10, 17, 23, 24, 25] (d)
[0, 1, 5, 7, 9, 11, 13, 17, 19, 27]
[0, 1, 5, 7, 9, 11, 13, 18, 20, 28]
[0, 1, 5, 7, 9, 11, 14, 17, 19, 28]
[0, 1, 5, 7, 9, 13, 16, 17, 19, 27] (d)
[0, 1, 5, 7, 9, 13, 16, 23, 27, 28] (d)
[0, 1, 5, 7, 9, 14, 18, 19, 25, 28]
[0, 1, 5, 7, 10, 13, 14, 15, 16, 20]
[0, 1, 5, 7, 10, 13, 18, 19, 21, 26]
[0, 1, 5, 7, 10, 14, 18, 19, 20, 21] (d)
[0, 1, 5, 7, 10, 14, 18, 21, 22, 25]
[0, 1, 5, 7, 10, 15, 17, 22, 23, 24]
[0, 1, 5, 7, 12, 14, 15, 16, 20, 23]
[0, 1, 5, 7, 12, 16, 19, 24, 25, 26] (d)
[0, 1, 5, 7, 13, 14, 18, 19, 21, 25]
[0, 1, 5, 7, 13, 15, 17, 19, 22, 27]
[0, 1, 5, 7, 13, 15, 18, 24, 25, 27] (d)
[0, 1, 5, 8, 9, 10, 12, 14, 19, 24]
[0, 1, 5, 8, 9, 10, 13, 14, 24, 25]
[0, 1, 5, 8, 9, 11, 12, 16, 23, 26]
[0, 1, 5, 8, 9, 11, 16, 19, 24, 26]
[0, 1, 5, 8, 9, 11, 16, 23, 26, 28] (d)
[0, 1, 5, 8, 9, 12, 16, 20, 23, 25]
[0, 1, 5, 8, 9, 12, 18, 20, 23, 26]
[0, 1, 5, 8, 10, 11, 12, 17, 21, 25]
[0, 1, 5, 8, 10, 11, 13, 14, 17, 21]
[0, 1, 5, 8, 10, 13, 14, 17, 21, 25]
[0, 1, 5, 8, 11, 12, 16, 17, 23, 26]
[0, 1, 5, 8, 11, 16, 19, 21, 22, 24]
[0, 1, 5, 8, 11, 16, 19, 21, 26, 28]
[0, 1, 5, 8, 11, 16, 21, 24, 25, 26]
[0, 1, 5, 8, 14, 15, 19, 21, 26, 28]
[0, 1, 5, 8, 14, 15, 21, 24, 25, 26] (d)
[0, 1, 5, 8, 15, 16, 21, 22, 24, 25]
[0, 1, 5, 8, 15, 16, 21, 23, 24, 26]
[0, 1, 5, 8, 15, 17, 21, 24, 26, 28]
[0, 1, 5, 9, 10, 11, 13, 19, 20, 27]
[0, 1, 5, 9, 10, 12, 19, 20, 26, 28]
[0, 1, 5, 9, 10, 13, 17, 22, 23, 24]
[0, 1, 5, 9, 10, 15, 16, 17, 22, 26]
[0, 1, 5, 9, 11, 12, 16, 17, 23, 25]
[0, 1, 5, 9, 11, 13, 14, 17, 19, 27]
[0, 1, 5, 9, 11, 13, 16, 17, 19, 22] (d)
[0, 1, 5, 9, 11, 13, 23, 26, 27, 28]
[0, 1, 5, 9, 12, 14, 18, 19, 27, 28] (d)
[0, 1, 5, 9, 12, 18, 19, 20, 22, 27]
[0, 1, 5, 9, 13, 15, 17, 22, 25, 27]
[0, 1, 5, 9, 13, 16, 17, 20, 22, 25]
[0, 1, 5, 9, 13, 16, 17, 20, 25, 27]
[0, 1, 5, 9, 13, 18, 19, 20, 22, 25]
[0, 1, 5, 9, 13, 18, 22, 23, 25, 27]
[0, 1, 5, 9, 16, 17, 20, 22, 23, 25] (d)
[0, 1, 5, 10, 12, 14, 15, 20, 22, 23] (d)
[0, 1, 5, 10, 12, 14, 15, 24, 27, 28]
[0, 1, 5, 10, 12, 14, 18, 19, 20, 23]
[0, 1, 5, 10, 13, 14, 15, 24, 25, 27]
[0, 1, 5, 10, 13, 15, 21, 24, 25, 26]
[0, 1, 5, 10, 13, 16, 17, 19, 22, 23]
[0, 1, 5, 10, 14, 15, 18, 19, 20, 23]
[0, 1, 5, 10, 14, 15, 21, 24, 25, 26]
[0, 1, 5, 10, 14, 18, 20, 22, 23, 26]
[0, 1, 5, 10, 14, 18, 22, 23, 25, 27]
[0, 1, 5, 10, 15, 17, 19, 22, 27, 28]
[0, 1, 5, 11, 13, 14, 16, 23, 26, 28]
[0, 1, 5, 11, 16, 22, 23, 24, 26, 28]
[0, 1, 5, 12, 15, 18, 19, 21, 24, 27]
[0, 1, 5, 12, 15, 18, 19, 23, 26, 27]
[0, 1, 5, 12, 15, 18, 19, 26, 27, 28]
[0, 1, 5, 12, 15, 19, 21, 23, 27, 28] (d)
[0, 1, 5, 13, 18, 24, 25, 26, 27, 28]
[0, 1, 5, 14, 15, 19, 21, 24, 27, 28]
[0, 1, 5, 15, 16, 17, 20, 21, 23, 25]
[0, 1, 6, 7, 8, 10, 13, 14, 19, 22]
[0, 1, 6, 7, 8, 11, 14, 19, 21, 22]
[0, 1, 6, 7, 8, 13, 14, 17, 22, 24]
[0, 1, 6, 7, 8, 13, 14, 19, 21, 26]
[0, 1, 6, 7, 8, 13, 15, 16, 18, 23]
[0, 1, 6, 7, 8, 13, 15, 20, 23, 25]
[0, 1, 6, 7, 8, 13, 17, 20, 21, 25]
[0, 1, 6, 7, 8, 17, 20, 23, 25, 26] (d)
[0, 1, 6, 7, 9, 10, 11, 12, 15, 16]
[0, 1, 6, 7, 9, 10, 14, 15, 19, 22]
[0, 1, 6, 7, 10, 11, 13, 16, 19, 28] (d)
[0, 1, 6, 7, 10, 15, 17, 22, 23, 28]
[0, 1, 6, 7, 11, 13, 16, 21, 23, 28]
[0, 1, 6, 7, 11, 15, 16, 19, 23, 28]
[0, 1, 6, 7, 12, 14, 19, 22, 23, 28]
[0, 1, 6, 7, 13, 18, 20, 21, 23, 28]
[0, 1, 6, 7, 14, 15, 17, 22, 25, 28]
[0, 1, 6, 7, 14, 17, 21, 22, 26, 27]
[0, 1, 6, 7, 14, 17, 22, 23, 26, 28]
[0, 1, 6, 7, 20, 21, 24, 25, 26, 27]
[0, 1, 6, 8, 9, 10, 11, 19, 23, 27]
[0, 1, 6, 8, 9, 10, 16, 19, 27, 28]
[0, 1, 6, 8, 9, 11, 14, 15, 19, 22]
[0, 1, 6, 8, 9, 11, 14, 19, 22, 25]
[0, 1, 6, 8, 9, 11, 16, 22, 23, 28]
[0, 1, 6, 8, 9, 11, 19, 22, 23, 25] (d)
[0, 1, 6, 8, 9, 11, 19, 25, 27, 28]
[0, 1, 6, 8, 9, 11, 20, 22, 23, 26]
[0, 1, 6, 8, 9, 12, 18, 23, 24, 28]
[0, 1, 6, 8, 9, 15, 16, 20, 25, 27] (d)
[0, 1, 6, 8, 9, 16, 22, 23, 24, 28]
[0, 1, 6, 8, 9, 22, 23, 24, 26, 28]
[0, 1, 6, 8, 10, 12, 16, 18, 27, 28]
[0, 1, 6, 8, 10, 13, 16, 19, 27, 28] (d)
[0, 1, 6, 8, 11, 17, 20, 22, 23, 25]
[0, 1, 6, 8, 13, 15, 17, 20, 25, 27]
[0, 1, 6, 8, 13, 15, 23, 25, 26, 27]
[0, 1, 6, 8, 13, 16, 17, 22, 23, 24]
[0, 1, 6, 8, 13, 16, 18, 22, 23, 28]
[0, 1, 6, 8, 15, 17, 20, 25, 26, 27]
[0, 1, 6, 9, 11, 13, 18, 23, 27, 28]
[0, 1, 6, 9, 11, 18, 20, 25, 26, 28]
[0, 1, 6, 9, 12, 14, 18, 19, 22, 27]
[0, 1, 6, 9, 13, 15, 17, 20, 25, 27] (d)
[0, 1, 6, 9, 13, 17, 20, 22, 23, 25] (d)
[0, 1, 6, 9, 13, 18, 20, 24, 25, 28] (d)
[0, 1, 6, 9, 16, 17, 22, 23, 24, 26]
[0, 1, 6, 10, 13, 14, 18, 22, 23, 28]
[0, 1, 6, 10, 14, 17, 23, 24, 26, 28] (d)
[0, 1, 6, 10, 14, 18, 19, 23, 26, 28]
[0, 1, 6, 11, 16, 18, 20, 21, 22, 25]
[0, 1, 6, 12, 15, 16, 18, 23, 24, 25]
[0, 1, 6, 12, 15, 17, 23, 25, 26, 27] (d)
[0, 1, 6, 13, 20, 21, 23, 24, 25, 26]
[0, 1, 6, 14, 17, 21, 23, 25, 26, 27] (d)
[0, 1, 7, 8, 10, 12, 16, 17, 23, 26]
[0, 1, 7, 8, 10, 15, 16, 18, 20, 25] (d)
[0, 1, 7, 8, 10, 16, 17, 20, 21, 23]
[0, 1, 7, 8, 10, 17, 20, 23, 24, 26]
[0, 1, 7, 8, 11, 13, 14, 15, 17, 22]
[0, 1, 7, 8, 11, 13, 14, 17, 20, 25]
[0, 1, 7, 8, 11, 13, 14, 17, 20, 27]
[0, 1, 7, 8, 11, 14, 20, 21, 25, 27]
[0, 1, 7, 8, 12, 17, 19, 21, 22, 27] (d)
[0, 1, 7, 8, 12, 17, 20, 23, 24, 26]
[0, 1, 7, 8, 14, 16, 17, 20, 21, 27]
[0, 1, 7, 8, 15, 20, 22, 23, 24, 26]
[0, 1, 7, 9, 10, 11, 15, 19, 20, 22]
[0, 1, 7, 9, 10, 13, 14, 20, 22, 23]
[0, 1, 7, 9, 10, 16, 17, 23, 25, 26]
[0, 1, 7, 9, 10, 17, 20, 23, 26, 28]
[0, 1, 7, 9, 13, 14, 18, 22, 24, 25]
[0, 1, 7, 9, 18, 19, 22, 23, 24, 25]
[0, 1, 7, 10, 11, 12, 15, 16, 20, 23] (d)
[0, 1, 7, 10, 11, 12, 15, 16, 20, 25]
[0, 1, 7, 10, 11, 12, 16, 18, 20, 25]
[0, 1, 7, 10, 12, 15, 20, 23, 24, 26] (d)
[0, 1, 7, 10, 12, 15, 20, 25, 27, 28]
[0, 1, 7, 10, 12, 18, 20, 24, 25, 27] (d)
[0, 1, 7, 10, 12, 19, 20, 24, 25, 26]
[0, 1, 7, 10, 13, 14, 18, 21, 24, 25]
[0, 1, 7, 10, 13, 14, 20, 21, 23, 25]
[0, 1, 7, 10, 13, 16, 18, 23, 25, 26]
[0, 1, 7, 10, 14, 15, 16, 18, 23, 25]
[0, 1, 7, 10, 14, 15, 18, 19, 20, 23] (d)
[0, 1, 7, 10, 14, 16, 18, 23, 25, 27]
[0, 1, 7, 10, 14, 18, 19, 21, 26, 28]
[0, 1, 7, 10, 14, 18, 23, 24, 25, 27] (d)
[0, 1, 7, 10, 18, 19, 20, 21, 26, 28]
[0, 1, 7, 10, 18, 19, 20, 23, 26, 28]
[0, 1, 7, 10, 19, 20, 21, 23, 25, 26]
[0, 1, 7, 11, 13, 14, 15, 16, 19, 28]
[0, 1, 7, 11, 13, 14, 17, 20, 27, 28]
[0, 1, 7, 11, 14, 18, 22, 25, 27, 28]
[0, 1, 7, 12, 14, 15, 17, 22, 23, 24]
[0, 1, 7, 12, 15, 18, 19, 23, 24, 26]
[0, 1, 7, 12, 15, 18, 20, 22, 24, 26]
[0, 1, 7, 12, 18, 19, 20, 24, 25, 26]
[0, 1, 7, 12, 18, 19, 22, 23, 24, 28]
[0, 1, 7, 12, 18, 22, 23, 24, 26, 28]
[0, 1, 7, 12, 20, 24, 25, 26, 27, 28]
[0, 1, 7, 13, 14, 15, 16, 17, 20, 27]
[0, 1, 7, 13, 14, 16, 23, 26, 27, 28]
[0, 1, 7, 14, 15, 17, 19, 23, 24, 28] (d)
[0, 1, 7, 14, 15, 17, 22, 23, 24, 28]
[0, 1, 7, 15, 16, 18, 23, 25, 26, 27] (d)
[0, 1, 8, 9, 10, 11, 12, 14, 20, 26]
[0, 1, 8, 9, 10, 11, 12, 16, 23, 26]
[0, 1, 8, 9, 10, 12, 14, 15, 22, 26] (d)
[0, 1, 8, 9, 11, 16, 19, 22, 23, 24]
[0, 1, 8, 9, 12, 15, 22, 26, 27, 28]
[0, 1, 8, 9, 12, 16, 23, 24, 26, 28] (d)
[0, 1, 8, 9, 12, 18, 24, 26, 27, 28]
[0, 1, 8, 9, 14, 15, 16, 19, 22, 27]
[0, 1, 8, 10, 11, 15, 19, 20, 21, 23]
[0, 1, 8, 10, 12, 15, 16, 19, 21, 28]
[0, 1, 8, 10, 12, 17, 19, 21, 23, 27]
[0, 1, 8, 10, 13, 14, 17, 19, 21, 28]
[0, 1, 8, 10, 13, 19, 20, 23, 24, 25]
[0, 1, 8, 10, 17, 20, 23, 24, 25, 26] (d)
[0, 1, 8, 11, 13, 14, 17, 19, 21, 25] (d)
[0, 1, 8, 11, 13, 14, 17, 19, 27, 28]
[0, 1, 8, 11, 14, 15, 17, 21, 27, 28]
[0, 1, 8, 11, 14, 17, 19, 20, 21, 27]
[0, 1, 8, 11, 15, 16, 19, 21, 22, 24]
[0, 1, 8, 11, 15, 16, 20, 21, 23, 24]
[0, 1, 8, 11, 16, 17, 20, 22, 23, 24]
[0, 1, 8, 12, 15, 16, 23, 24, 25, 27] (d)
[0, 1, 8, 12, 16, 17, 21, 23, 24, 26] (d)
[0, 1, 8, 13, 15, 16, 17, 19, 22, 23]
[0, 1, 8, 13, 15, 16, 18, 23, 25, 26]
[0, 1, 8, 13, 15, 17, 20, 21, 25, 27]
[0, 1, 8, 14, 15, 16, 20, 21, 22, 27]
[0, 1, 8, 14, 15, 16, 20, 21, 25, 27] (d)
[0, 1, 8, 15, 20, 21, 24, 25, 26, 27]
[0, 1, 8, 16, 18, 20, 21, 22, 24, 25]
[0, 1, 9, 10, 11, 12, 16, 20, 23, 25] (d)
[0, 1, 9, 10, 14, 16, 19, 23, 27, 28] (d)
[0, 1, 9, 11, 13, 14, 23, 26, 27, 28]
[0, 1, 9, 11, 14, 15, 17, 20, 27, 28]
[0, 1, 9, 11, 14, 19, 23, 26, 27, 28] (d)
[0, 1, 9, 11, 16, 18, 20, 22, 24, 28]
[0, 1, 9, 12, 15, 18, 20, 22, 27, 28] (d)
[0, 1, 9, 12, 18, 19, 20, 22, 25, 28]
[0, 1, 9, 12, 18, 19, 20, 22, 27, 28]
[0, 1, 9, 13, 16, 17, 19, 20, 22, 25]
[0, 1, 9, 13, 17, 19, 20, 25, 27, 28]
[0, 1, 9, 15, 16, 18, 19, 20, 22, 27] (d)
[0, 1, 9, 16, 18, 19, 20, 22, 24, 25] (d)
[0, 1, 9, 18, 19, 20, 24, 25, 27, 28]
[0, 1, 9, 18, 19, 23, 24, 26, 27, 28]
[0, 1, 10, 11, 12, 15, 20, 24, 25, 27]
[0, 1, 10, 11, 13, 15, 16, 20, 25, 28]
[0, 1, 10, 12, 15, 18, 20, 22, 24, 28]
[0, 1, 10, 12, 16, 18, 20, 22, 27, 28]
[0, 1, 10, 12, 18, 19, 23, 24, 25, 26]
[0, 1, 10, 13, 14, 15, 16, 17, 25, 27]
[0, 1, 10, 13, 14, 15, 16, 18, 22, 28]
[0, 1, 10, 13, 14, 15, 16, 20, 25, 27]
[0, 1, 10, 13, 16, 18, 19, 22, 23, 28] (d)
[0, 1, 10, 13, 19, 20, 23, 24, 26, 28]
[0, 1, 10, 14, 15, 16, 17, 20, 23, 25]
[0, 1, 10, 18, 19, 20, 21, 22, 24, 25]
[0, 1, 10, 18, 19, 20, 21, 23, 24, 28]
[0, 1, 11, 12, 15, 16, 17, 20, 24, 25]
[0, 1, 11, 12, 16, 17, 21, 24, 25, 26]
[0, 1, 11, 15, 16, 20, 22, 24, 25, 28]
[0, 1, 12, 15, 21, 23, 24, 25, 26, 27]
[0, 1, 12, 16, 18, 19, 22, 23, 24, 25]
[0, 1, 12, 16, 18, 20, 22, 23, 24, 28]
[0, 1, 14, 15, 16, 17, 21, 22, 25, 27] (d)
[0, 1, 14, 15, 16, 18, 20, 21, 22, 27]
[0, 1, 14, 15, 17, 19, 22, 23, 27, 28] (d)
[0, 1, 14, 15, 17, 22, 23, 24, 26, 28]
[0, 1, 14, 15, 18, 19, 20, 21, 23, 24]
[0, 1, 14, 15, 20, 21, 23, 24, 25, 26]
[0, 1, 16, 18, 19, 20, 21, 22, 24, 25]

************************
From here on, we do not have complete lists any more!
************************

p = 31, m = 8 (not sure if maximal):

[0, 1, 2, 8, 11, 14, 16, 18] (d, m)
___________________________

p = 37, m = 10 (not sure if maximal):

[0, 2, 4, 11, 13, 14, 21, 31, 35, 36] (d)
________________________

p = 41, m = 12 (not sure if maximal):

[1, 2, 4, 5, 6, 9, 15, 16, 27, 32, 33, 35] (d)